#xi2d with jacknife, root:tmp/PairCount/tmp-rp-pi NJN=0
#rper:     0.50000    1.50000    2.50000    3.50000    4.50000    5.50000    6.50000    7.50000    8.50000    9.50000   10.50000   11.50000   12.50000   13.50000   14.50000   15.50000   16.50000   17.50000   18.50000   19.50000
#rpar:   -19.50000  -18.50000  -17.50000  -16.50000  -15.50000  -14.50000  -13.50000  -12.50000  -11.50000  -10.50000   -9.50000   -8.50000   -7.50000   -6.50000   -5.50000   -4.50000   -3.50000   -2.50000   -1.50000   -0.50000    0.50000    1.50000    2.50000    3.50000    4.50000    5.50000    6.50000    7.50000    8.50000    9.50000   10.50000   11.50000   12.50000   13.50000   14.50000   15.50000   16.50000   17.50000   18.50000   19.50000
#xi2d
        0.53188692
        0.87264457
        0.92819149
        1.14445174
        1.27717391
        1.64534075
        1.96066253
        2.52164656
        3.07046070
        3.44859813
        4.47276395
        5.56423841
        6.70958904
        8.23227066
       10.91631799
       13.51630812
       15.56262295
       18.83541804
       22.71014493
       25.01794872
       24.20400501
       22.74967062
       18.80645161
       15.47606557
       13.65510062
       11.02231520
        8.14378660
        6.92054795
        5.58543046
        4.37592468
        3.47263017
        3.12737127
        2.49893542
        2.01311249
        1.54520167
        1.16304348
        1.00525279
        0.92021277
        0.76608187
        0.53451677
        0.27645051
        0.40213200
        0.35974786
        0.44373285
        0.47545455
        0.55821445
        0.62986716
        0.71428571
        0.88227304
        1.12328459
        1.36213992
        1.69143780
        2.15292523
        2.67943010
        3.28847481
        4.00889680
        5.12550067
        6.61909091
        8.21832761
        9.35868331
        9.42840935
        8.12943872
        6.58545455
        5.08277704
        3.93327402
        3.23694502
        2.66874443
        2.13756494
        1.80775444
        1.32921811
        1.17007874
        0.94294770
        0.68454259
        0.55565735
        0.52047860
        0.54818182
        0.35590119
        0.36695182
        0.34497619
        0.23913538
        0.13634480
        0.25479300
        0.25135775
        0.33070331
        0.25966548
        0.37925402
        0.46182418
        0.57158837
        0.75501114
        0.87563347
        0.98879395
        1.21046847
        1.48215266
        1.81504365
        2.28112119
        2.88337054
        3.48569857
        4.52191894
        5.52956654
        6.19326120
        6.25133543
        5.58219083
        4.52026468
        3.53025303
        2.86272321
        2.23220665
        1.77152451
        1.47995607
        1.18244264
        0.92604006
        0.87453773
        0.71547884
        0.55984340
        0.44476544
        0.39613395
        0.34576364
        0.23656645
        0.25414288
        0.19977772
        0.14352811
        0.23843276
        0.21517463
        0.22601048
        0.24782952
        0.29903148
        0.31998828
        0.36426184
        0.51052374
        0.53572839
        0.74856476
        0.78901274
        1.05123114
        1.22320988
        1.49606918
        1.90542820
        2.27063905
        2.72526417
        3.37686822
        3.92735886
        4.38307873
        4.32171529
        3.92893802
        3.37764970
        2.72564841
        2.31186807
        1.85104694
        1.51847484
        1.23032099
        1.02740270
        0.80613057
        0.75128929
        0.59692065
        0.51483113
        0.32927069
        0.28014842
        0.30064568
        0.25493291
        0.18055144
        0.16499398
        0.22346919
        0.16499150
        0.14965512
        0.17832542
        0.25133194
        0.22318126
        0.29996083
        0.36478281
        0.43361174
        0.50155569
        0.65619986
        0.72921541
        0.96774439
        1.06230910
        1.36575151
        1.55480296
        1.94589239
        2.31577717
        2.57850417
        3.05129795
        3.23621564
        3.26799693
        3.04850833
        2.65842456
        2.32699649
        1.89864350
        1.56927340
        1.34682798
        1.04062309
        0.97170027
        0.70800187
        0.65864466
        0.50000000
        0.37303879
        0.32772848
        0.31876224
        0.23150432
        0.23403598
        0.14801776
        0.12609471
        0.14241534
        0.09267611
        0.16389065
        0.18481366
        0.22712377
        0.29447465
        0.24234758
        0.33499393
        0.37597464
        0.49750160
        0.57740481
        0.66702268
        0.83160043
        0.96557140
        1.10262158
        1.34884461
        1.71075112
        1.82405063
        2.13453519
        2.38381532
        2.54496153
        2.51632833
        2.39117199
        2.16225059
        1.89291139
        1.70644814
        1.36946973
        1.08443863
        0.99246089
        0.82547681
        0.64541057
        0.57540080
        0.45419603
        0.40183835
        0.40729386
        0.22615735
        0.30307245
        0.21300731
        0.22823948
        0.20788303
        0.11503525
        0.07077687
        0.14531394
        0.16549410
        0.20000000
        0.26443041
        0.28926964
        0.33745498
        0.37365635
        0.46018263
        0.51510566
        0.63463592
        0.67709869
        0.88390730
        1.00488998
        1.19692835
        1.36814312
        1.59166667
        1.77395789
        1.94141763
        2.04758829
        1.99182092
        1.94789082
        1.80511388
        1.58696581
        1.35801272
        1.19971103
        0.97236101
        0.85640026
        0.73543066
        0.61669870
        0.54753283
        0.45402421
        0.40424622
        0.31831622
        0.28601637
        0.23175779
        0.16401084
        0.16700942
        0.13125304
        0.10986341
        0.10611083
        0.14428518
        0.13616537
        0.21453044
        0.18979027
        0.24971794
        0.29977095
        0.38945386
        0.39729340
        0.47277883
        0.57438812
        0.70234114
        0.77829820
        0.86361940
        1.08886410
        1.18990932
        1.38566824
        1.49555691
        1.60328540
        1.65449554
        1.64120042
        1.55135185
        1.48201608
        1.34867100
        1.21334573
        1.05224019
        0.88283582
        0.80860541
        0.70234114
        0.62324423
        0.49338374
        0.36064735
        0.36252354
        0.28649558
        0.25535916
        0.19072866
        0.18280377
        0.13256211
        0.14371935
        0.08295598
        0.14683000
        0.16614707
        0.16496350
        0.19783874
        0.20168315
        0.26668333
        0.31068238
        0.31346130
        0.35725790
        0.46186176
        0.49724695
        0.55159236
        0.70267906
        0.83932347
        0.93842035
        1.07101179
        1.16375929
        1.23975958
        1.30052455
        1.34366012
        1.34031715
        1.33637603
        1.25672060
        1.17010266
        1.07051521
        0.94611780
        0.82556067
        0.70367901
        0.58758989
        0.49559097
        0.44554950
        0.36601280
        0.29206915
        0.27527838
        0.23602433
        0.16162424
        0.21496259
        0.16262774
        0.17695473
        0.14914749
        0.13187019
        0.15079984
        0.16697179
        0.16835973
        0.25989353
        0.23933791
        0.31230119
        0.31478274
        0.36415368
        0.42165094
        0.48213954
        0.55445952
        0.61591261
        0.73929817
        0.85756939
        0.91887535
        1.01935069
        1.09016454
        1.13310272
        1.17990827
        1.15483585
        1.16483682
        1.04648417
        1.03794550
        0.91332709
        0.82734343
        0.72253135
        0.65753930
        0.56163360
        0.48228822
        0.44379226
        0.35448358
        0.34397228
        0.27113506
        0.24067999
        0.25810655
        0.18075889
        0.12452830
        0.13001522
        0.09015194
        0.10752254
        0.13237683
        0.15169108
        0.21142818
        0.20855688
        0.21609203
        0.24847587
        0.26942565
        0.33545676
        0.43247632
        0.44325107
        0.52152463
        0.59849199
        0.63069348
        0.76057386
        0.84772666
        0.86546361
        0.88720347
        0.97311628
        0.99986616
        1.03064468
        0.99621737
        0.91927832
        0.88041209
        0.81894001
        0.73702375
        0.63083026
        0.57264037
        0.46772995
        0.46506852
        0.40297700
        0.31363513
        0.29472575
        0.25440399
        0.21799803
        0.22404075
        0.15291370
        0.14291501
        0.12831619
        0.10146683
        0.12697628
        0.12670687
        0.16918110
        0.18260599
        0.20563940
        0.24290299
        0.23419269
        0.29062152
        0.32011783
        0.36190151
        0.42048991
        0.46972730
        0.49822163
        0.63499320
        0.64392167
        0.68945771
        0.77918586
        0.79283951
        0.84715042
        0.91146187
        0.90211428
        0.86010589
        0.82716049
        0.80539672
        0.72488031
        0.64478384
        0.62770295
        0.52803637
        0.46710033
        0.41876444
        0.37940236
        0.34564871
        0.27023354
        0.25560954
        0.22034215
        0.20104341
        0.18745147
        0.14695474
        0.12145736
        0.13685771
        0.12281409
        0.11848396
        0.18289462
        0.15999087
        0.19397926
        0.20467566
        0.25380057
        0.25418683
        0.30228532
        0.30683861
        0.38566978
        0.46191118
        0.47074718
        0.52000910
        0.62629915
        0.61950440
        0.66671414
        0.73271361
        0.72712772
        0.70355050
        0.73179416
        0.73339410
        0.71285936
        0.65862413
        0.59472422
        0.61604829
        0.53353797
        0.47552547
        0.43450214
        0.38374398
        0.34187327
        0.32952447
        0.25693510
        0.24486816
        0.20942075
        0.18685549
        0.17573890
        0.14609422
        0.14809055
        0.10898562
        0.09818221
        0.16544078
        0.11424285
        0.15369816
        0.20155307
        0.15086825
        0.23448422
        0.26854004
        0.27248691
        0.30927670
        0.40167231
        0.41770944
        0.41596861
        0.46446016
        0.54678918
        0.57606475
        0.63172135
        0.65526517
        0.68251756
        0.62234127
        0.64881205
        0.67254597
        0.64144624
        0.62930468
        0.57956747
        0.49757076
        0.49446150
        0.40133602
        0.41930011
        0.38346740
        0.33769759
        0.25535403
        0.26642721
        0.21838594
        0.18453614
        0.20102120
        0.15017101
        0.10995606
        0.13729880
        0.07469569
        0.10136195
        0.14819900
        0.14426213
        0.13599524
        0.16091328
        0.18780160
        0.24663501
        0.25087776
        0.28223100
        0.30960555
        0.32599821
        0.37678479
        0.37213038
        0.46223160
        0.49956663
        0.50896092
        0.51350552
        0.56262250
        0.60519095
        0.55345773
        0.57684650
        0.59461130
        0.57693062
        0.49950710
        0.51170307
        0.49184022
        0.45706839
        0.39654533
        0.36169268
        0.34730658
        0.32304196
        0.28785785
        0.23245101
        0.24870199
        0.17526491
        0.14338071
        0.15859915
        0.13181795
        0.12014178
        0.08522770
        0.09773161
        0.09487892
        0.12612252
        0.14668666
        0.16514084
        0.18913775
        0.21398478
        0.23319386
        0.22290101
        0.28748580
        0.30580507
        0.36291388
        0.38422678
        0.40366334
        0.44690674
        0.48036755
        0.48398527
        0.52602157
        0.52842571
        0.52205006
        0.50027498
        0.54214926
        0.47287910
        0.46468367
        0.46139143
        0.41911357
        0.41655460
        0.37777154
        0.34901179
        0.30970452
        0.30658508
        0.21344475
        0.25011623
        0.20486022
        0.16147151
        0.19136482
        0.16102728
        0.11660028
        0.11356047
        0.10008716
        0.11337523
        0.11016949
        0.13691953
        0.12804242
        0.13599929
        0.16845878
        0.20622226
        0.23144182
        0.26188961
        0.27222417
        0.31873586
        0.28744939
        0.32913843
        0.38957237
        0.40858644
        0.44795784
        0.41299076
        0.41367907
        0.43646216
        0.42514760
        0.45646403
        0.45341723
        0.39852390
        0.38887068
        0.39525692
        0.43178597
        0.37222968
        0.34524333
        0.30819565
        0.30863330
        0.25175685
        0.25688577
        0.24548465
        0.18820583
        0.17232887
        0.14751340
        0.14392847
        0.12371499
        0.13241525
        0.11355166
        0.09354578
        0.12736980
        0.11514973
        0.15745724
        0.15419199
        0.16443630
        0.16340249
        0.21276153
        0.21489016
        0.23755713
        0.29545360
        0.29870293
        0.34200937
        0.33773309
        0.35447138
        0.35671380
        0.34559784
        0.41556728
        0.42573728
        0.41378811
        0.39981376
        0.39955959
        0.40014842
        0.37504926
        0.34284240
        0.38921093
        0.34497009
        0.32460177
        0.27489191
        0.27107252
        0.25292896
        0.19454750
        0.20369369
        0.20755187
        0.18807884
        0.13479311
        0.16244467
        0.11070072
        0.10960018
        0.10499782
        0.12217499
        0.12297343
        0.12433883
        0.17535098
        0.12236019
        0.18572186
        0.17921296
        0.19417878
        0.21833107
        0.21159924
        0.23724968
        0.25144953
        0.30620565
        0.29988799
        0.34998239
        0.33621775
        0.34774620
        0.37529849
        0.37739655
        0.35901097
        0.35629486
        0.35334783
        0.37686436
        0.35548692
        0.34329767
        0.34356284
        0.31097094
        0.29201458
        0.26533349
        0.24687777
        0.23814791
        0.20872458
        0.18069058
        0.18697641
        0.19106242
        0.12998907
        0.16693539
        0.12189153
        0.13194293
        0.09892239
        0.12373529
        0.10881875
        0.11826746
        0.14590533
        0.14093809
        0.15183207
        0.15721683
        0.18299758
        0.19877516
        0.23333084
        0.21944069
        0.23873435
        0.26249504
        0.29432876
        0.29785149
        0.30345252
        0.28162318
        0.32044312
        0.34298795
        0.35357885
        0.31517221
        0.32639447
        0.34256198
        0.28948452
        0.30889896
        0.28827742
        0.30816105
        0.23647435
        0.24968134
        0.23876109
        0.21611913
        0.16987191
        0.19223476
        0.17634874
        0.15915288
        0.12570356
        0.14943651
        0.10790827
        0.09349480
        0.10867121
