#xi0 with jacknife, root:tmp/PairCount/tmp-All-rmu NJN=25
#r(Mpc/h) mean sigma All jacknifecolumns
        0.50000000        52.39713874         1.53421937        52.33839279        52.38440959        52.84723003        52.32554971        52.23244645        52.58597304        52.34962889        52.78257622        52.16313454        52.87703817        52.55306465        52.18268447        52.28317146        52.70443190        52.23626788        52.18878248        51.63803510        52.71918659        52.05374035        52.43294488        52.53764266        52.15316997        52.77759118        52.18887797        52.82902638        51.90186385
        1.50000000         8.41966163         0.26109166         8.41702280         8.42452183         8.46975053         8.51009488         8.36436672         8.48546746         8.39362612         8.46070386         8.40342537         8.40469802         8.43862203         8.38947623         8.34679620         8.45854276         8.38066651         8.34744074         8.33732511         8.46224672         8.37708104         8.40102392         8.47771643         8.37058718         8.54044400         8.42255502         8.45685719         8.36750485
        2.50000000         3.63338337         0.10339579         3.63360867         3.63028325         3.67310513         3.64461501         3.63010135         3.65623920         3.59709138         3.64381854         3.62303108         3.62513099         3.64537953         3.62880678         3.63527359         3.62606126         3.62584876         3.62417436         3.59956699         3.63849107         3.60972101         3.62748494         3.65162018         3.62271968         3.67511795         3.59424406         3.67128115         3.63537713
        3.50000000         2.13930001         0.06418893         2.13997948         2.12932704         2.15586382         2.15405307         2.12168794         2.14329223         2.12042562         2.13456614         2.13777439         2.12713611         2.14134660         2.13860657         2.13342675         2.13209989         2.12063443         2.12454223         2.12540195         2.16108948         2.13948134         2.14290933         2.15810461         2.13631113         2.14824477         2.14758091         2.17082291         2.13777097
        4.50000000         1.47449815         0.04161719         1.47459588         1.47332345         1.48284740         1.48250092         1.47630767         1.48125659         1.47106981         1.47183253         1.46595411         1.46545649         1.47868965         1.46722941         1.47283967         1.47588506         1.46169677         1.47708858         1.44997966         1.48329815         1.47279015         1.46759719         1.47752075         1.47623729         1.48850173         1.47371775         1.49016290         1.47867016
        5.50000000         1.11250617         0.03111368         1.11239171         1.10974348         1.11712773         1.11427612         1.11123069         1.11705947         1.11253202         1.11413179         1.11011815         1.10916028         1.11442646         1.09835708         1.11265782         1.10949053         1.09853633         1.10837391         1.10160433         1.11504098         1.11456242         1.11325476         1.12182370         1.11289564         1.12201066         1.11852847         1.12521333         1.11049819
        6.50000000         0.86090556         0.03921747         0.86095407         0.86533978         0.87522531         0.86483280         0.86075202         0.87011508         0.86084377         0.85298628         0.85564444         0.85683286         0.85784767         0.84596442         0.85447157         0.85769488         0.84798424         0.86018893         0.84762128         0.86446135         0.85990098         0.85822462         0.86845852         0.87276743         0.87514311         0.86305357         0.87042127         0.85586291
        7.50000000         0.70086009         0.02525796         0.70088124         0.70279370         0.70612261         0.70374790         0.70189208         0.70457629         0.70360766         0.69784867         0.69596105         0.69826535         0.69637945         0.69469430         0.70115294         0.69976758         0.69021917         0.69499609         0.69181981         0.70548840         0.69494059         0.70296890         0.70834527         0.70621521         0.70768641         0.70179702         0.70983307         0.70038270
        8.50000000         0.56640616         0.02100566         0.56630955         0.56814680         0.56898052         0.56543757         0.56460727         0.56935658         0.56742136         0.56494872         0.56279903         0.56079047         0.56438621         0.56691617         0.56378970         0.56789541         0.55681574         0.56228968         0.55899334         0.57142449         0.56020544         0.56771657         0.57122425         0.57328645         0.57135757         0.57098792         0.57121012         0.56916658
        9.50000000         0.46109664         0.01953964         0.46118204         0.46445938         0.46523975         0.45761136         0.46052157         0.46449517         0.46356314         0.46026173         0.46049263         0.45556742         0.45549861         0.46011813         0.45888681         0.46026336         0.45235667         0.45870491         0.45650929         0.46570268         0.45683662         0.46119703         0.46599965         0.46821575         0.46397808         0.46218052         0.46764569         0.46111013
       10.50000000         0.39454439         0.01585783         0.39454812         0.39805951         0.39579264         0.39479557         0.39361999         0.39821619         0.39313965         0.39343149         0.39285863         0.39019209         0.39285808         0.39235333         0.39483551         0.39183465         0.38962039         0.39144164         0.38844779         0.40080786         0.39020462         0.39707221         0.39703786         0.39896206         0.39657049         0.39505523         0.39741759         0.39898473
       11.50000000         0.33393581         0.01715110         0.33395307         0.34135294         0.33477103         0.33084132         0.33435367         0.33827284         0.33273398         0.32952837         0.33239390         0.33000690         0.33283725         0.33333235         0.33165726         0.33370840         0.32930623         0.32994124         0.32724865         0.33868662         0.33291310         0.33500473         0.33478879         0.34089526         0.33474738         0.33736886         0.33649644         0.33520773
       12.50000000         0.27938191         0.01653866         0.27923842         0.28588339         0.28124939         0.27568543         0.28112660         0.28486029         0.27910025         0.27679756         0.27438155         0.27571433         0.27696933         0.27930180         0.27835179         0.27730327         0.27610432         0.27737566         0.27393600         0.28468626         0.27554044         0.27943240         0.28172870         0.28511353         0.28073849         0.28108291         0.28126521         0.28081872
       13.50000000         0.23173618         0.01490184         0.23167845         0.23856515         0.23258604         0.22923732         0.23311999         0.23431583         0.23104383         0.22818836         0.22747784         0.22719648         0.22919502         0.23501419         0.23015484         0.23038828         0.22762379         0.23121063         0.22872701         0.23533838         0.22933614         0.23039812         0.23520240         0.23635362         0.23105870         0.23313754         0.23378048         0.23475454
       14.50000000         0.20878160         0.01678563         0.20878598         0.21581217         0.21121931         0.20492904         0.20620004         0.21279581         0.21132988         0.20621026         0.20510008         0.20550244         0.20814639         0.20997802         0.20729890         0.20859926         0.20464430         0.20972446         0.20452276         0.21029821         0.20246937         0.20689351         0.21088557         0.21591141         0.20813332         0.20899834         0.21121641         0.21272080
       15.50000000         0.18373029         0.01575515         0.18369686         0.18884066         0.18721889         0.18050589         0.18254263         0.18684613         0.18449722         0.18194937         0.18151875         0.18242861         0.18375517         0.18776306         0.18260890         0.18385380         0.18059770         0.18527092         0.17817296         0.18744988         0.17656177         0.18231263         0.18520778         0.18815345         0.18149635         0.18028333         0.18526243         0.18815899
       16.50000000         0.15589608         0.01539861         0.15601299         0.15859776         0.15937615         0.15073787         0.15635692         0.16045764         0.15658706         0.15360678         0.15260021         0.15237114         0.15378668         0.15760896         0.15427605         0.15434829         0.15238151         0.15749366         0.15484054         0.15806271         0.15088177         0.15452475         0.15920756         0.16095158         0.15257189         0.15533222         0.15856169         0.16188067
       17.50000000         0.14568306         0.01524293         0.14590022         0.14952124         0.15120409         0.14053188         0.14658562         0.14818641         0.14739633         0.14435615         0.14200083         0.14337805         0.14607178         0.14756236         0.14438024         0.14350956         0.14217759         0.14779706         0.14301892         0.14671139         0.13838763         0.14519402         0.14923503         0.14962933         0.14276645         0.14587765         0.14769145         0.14890548
       18.50000000         0.13413656         0.01474472         0.13431763         0.13969535         0.13686660         0.12890447         0.13367406         0.13857199         0.13728125         0.13208406         0.13199324         0.13201150         0.13548453         0.13479233         0.13271178         0.13272278         0.13007537         0.13515278         0.13236319         0.13513072         0.12837572         0.13238295         0.13806816         0.13733529         0.13018223         0.13512770         0.13509267         0.13733327
       19.50000000         0.11794910         0.01658371         0.11814754         0.12443474         0.12063699         0.11278701         0.11613039         0.12308200         0.11824164         0.11800605         0.11615713         0.11639563         0.12012974         0.11890367         0.11692967         0.11486189         0.11398149         0.11953803         0.11823588         0.11767820         0.11014742         0.11465315         0.12173763         0.12299657         0.11434967         0.11790373         0.11900097         0.12180823
       20.50000000         0.10235143         0.01396523         0.10247118         0.10820390         0.10431078         0.09696409         0.10062586         0.10593638         0.10375447         0.10179762         0.09942528         0.10149235         0.10371003         0.10341538         0.10097071         0.09967315         0.09850634         0.10552010         0.10333854         0.10188199         0.09804167         0.09967332         0.10529650         0.10515977         0.09913918         0.10182646         0.10384130         0.10628046
       21.50000000         0.09233508         0.01572222         0.09255192         0.09795080         0.09331773         0.08871970         0.09224156         0.09593972         0.09616728         0.09013906         0.09084083         0.09131236         0.09460006         0.09581216         0.09220610         0.08831086         0.08794581         0.09409166         0.09284659         0.09264434         0.08432787         0.08990617         0.09535270         0.09640852         0.08848219         0.09106201         0.09263837         0.09511253
       22.50000000         0.08991859         0.01530887         0.09007972         0.09627562         0.09168901         0.08625064         0.08837893         0.08965363         0.09167448         0.08856051         0.08784986         0.08765400         0.09119767         0.09227879         0.09082044         0.08739209         0.08484701         0.09127883         0.09255364         0.09119885         0.08229012         0.08602806         0.09246696         0.09490914         0.08854127         0.09085619         0.08989514         0.09342389
       23.50000000         0.08167931         0.01446200         0.08169812         0.08611131         0.08188040         0.07783264         0.08057011         0.08355432         0.08258765         0.08126165         0.07978246         0.08039021         0.08268346         0.08378565         0.08111452         0.07929178         0.07636485         0.08375692         0.08359277         0.08283516         0.07643023         0.07696932         0.08565126         0.08732731         0.07883728         0.08197231         0.08150675         0.08589253
       24.50000000         0.06874867         0.01419278         0.06887047         0.07251938         0.07171110         0.06491310         0.06732565         0.07177050         0.06936829         0.06831409         0.06750779         0.06733806         0.06949393         0.07191638         0.06915217         0.06659769         0.06347238         0.07089104         0.07097168         0.06983354         0.06195938         0.06436651         0.07108815         0.07262347         0.06620921         0.06957194         0.06798093         0.07182039
       25.50000000         0.06784802         0.01404436         0.06795748         0.07132116         0.06842616         0.06318291         0.06616554         0.07158639         0.06993562         0.06685786         0.06667696         0.06718383         0.06827451         0.07088721         0.07039659         0.06609459         0.06324198         0.07008862         0.07099130         0.06974952         0.06192992         0.06285684         0.06953288         0.07038384         0.06438279         0.06852190         0.06714203         0.07038964
       26.50000000         0.05819637         0.01446936         0.05831448         0.06205960         0.05902897         0.05427891         0.05637760         0.06138543         0.05881213         0.05637516         0.05743960         0.05711039         0.05968766         0.06071099         0.06031760         0.05662537         0.05337278         0.05990389         0.06077523         0.06028929         0.05185766         0.05284373         0.06055303         0.06186650         0.05450328         0.05812929         0.05870609         0.06189909
       27.50000000         0.05739346         0.01486800         0.05748740         0.06186932         0.05902868         0.05432694         0.05736630         0.06041289         0.05884899         0.05715184         0.05638830         0.05582641         0.05795460         0.06196991         0.05818095         0.05502803         0.05203922         0.05873273         0.05921349         0.05856718         0.05127225         0.05172597         0.05829371         0.06037369         0.05284628         0.05702731         0.05861880         0.06177259
       28.50000000         0.05172121         0.01403999         0.05184458         0.05401300         0.05155879         0.04796896         0.05050900         0.05442061         0.05196709         0.05145527         0.05109507         0.04967890         0.05256294         0.05507478         0.05342679         0.04887861         0.04629473         0.05329209         0.05374329         0.05469514         0.04650898         0.04778575         0.05441154         0.05577333         0.04726165         0.05212416         0.05261694         0.05591280
       29.50000000         0.04252847         0.01547163         0.04253884         0.04656175         0.04267097         0.03798012         0.04164796         0.04682966         0.04436506         0.04318968         0.04229943         0.04043852         0.04398851         0.04652619         0.04431789         0.03857067         0.03632920         0.04297284         0.04393877         0.04417678         0.03579836         0.03811820         0.04381169         0.04485710         0.03991125         0.04232936         0.04428081         0.04730085
