    0.00000    1.00000    2.00000    3.00000    4.00000    5.00000    6.00000    7.00000    8.00000    9.00000   10.00000   11.00000   12.00000   13.00000   14.00000   15.00000   16.00000   17.00000   18.00000   19.00000   20.00000   21.00000   22.00000   23.00000   24.00000   25.00000   26.00000   27.00000   28.00000   29.00000   30.00000
    0.00000    0.01000    0.02000    0.03000    0.04000    0.05000    0.06000    0.07000    0.08000    0.09000    0.10000    0.11000    0.12000    0.13000    0.14000    0.15000    0.16000    0.17000    0.18000    0.19000    0.20000    0.21000    0.22000    0.23000    0.24000    0.25000    0.26000    0.27000    0.28000    0.29000    0.30000    0.31000    0.32000    0.33000    0.34000    0.35000    0.36000    0.37000    0.38000    0.39000    0.40000    0.41000    0.42000    0.43000    0.44000    0.45000    0.46000    0.47000    0.48000    0.49000    0.50000    0.51000    0.52000    0.53000    0.54000    0.55000    0.56000    0.57000    0.58000    0.59000    0.60000    0.61000    0.62000    0.63000    0.64000    0.65000    0.66000    0.67000    0.68000    0.69000    0.70000    0.71000    0.72000    0.73000    0.74000    0.75000    0.76000    0.77000    0.78000    0.79000    0.80000    0.81000    0.82000    0.83000    0.84000    0.85000    0.86000    0.87000    0.88000    0.89000    0.90000    0.91000    0.92000    0.93000    0.94000    0.95000    0.96000    0.97000    0.98000    0.99000    1.00000
    2.400000000000000e+01     1.900000000000000e+01     2.200000000000000e+01     1.600000000000000e+01     2.700000000000000e+01     1.600000000000000e+01     2.300000000000000e+01     1.300000000000000e+01     3.000000000000000e+01     2.700000000000000e+01     2.300000000000000e+01     2.200000000000000e+01     2.500000000000000e+01     2.000000000000000e+01     1.900000000000000e+01     2.000000000000000e+01     2.300000000000000e+01     2.500000000000000e+01     1.600000000000000e+01     1.700000000000000e+01     2.600000000000000e+01     2.000000000000000e+01     1.800000000000000e+01     2.200000000000000e+01     2.100000000000000e+01     2.600000000000000e+01     1.700000000000000e+01     1.700000000000000e+01     1.600000000000000e+01     1.900000000000000e+01     1.300000000000000e+01     2.200000000000000e+01     1.900000000000000e+01     2.600000000000000e+01     2.700000000000000e+01     1.800000000000000e+01     1.200000000000000e+01     1.400000000000000e+01     2.700000000000000e+01     1.700000000000000e+01     1.700000000000000e+01     1.800000000000000e+01     2.300000000000000e+01     2.100000000000000e+01     1.100000000000000e+01     2.300000000000000e+01     3.100000000000000e+01     2.100000000000000e+01     2.700000000000000e+01     2.500000000000000e+01     1.600000000000000e+01     1.500000000000000e+01     1.400000000000000e+01     2.600000000000000e+01     2.000000000000000e+01     2.400000000000000e+01     2.100000000000000e+01     1.900000000000000e+01     2.100000000000000e+01     2.200000000000000e+01     1.900000000000000e+01     2.200000000000000e+01     2.000000000000000e+01     1.200000000000000e+01     2.200000000000000e+01     2.200000000000000e+01     2.400000000000000e+01     2.100000000000000e+01     2.100000000000000e+01     1.700000000000000e+01     2.400000000000000e+01     2.000000000000000e+01     1.700000000000000e+01     1.600000000000000e+01     1.700000000000000e+01     1.600000000000000e+01     1.500000000000000e+01     2.300000000000000e+01     2.200000000000000e+01     2.300000000000000e+01     1.700000000000000e+01     2.300000000000000e+01     3.300000000000000e+01     1.800000000000000e+01     1.900000000000000e+01     2.700000000000000e+01     2.000000000000000e+01     2.300000000000000e+01     2.300000000000000e+01     1.600000000000000e+01     1.000000000000000e+01     1.800000000000000e+01     3.100000000000000e+01     1.300000000000000e+01     2.300000000000000e+01     2.600000000000000e+01     1.300000000000000e+01     2.200000000000000e+01     2.300000000000000e+01     2.500000000000000e+01
    1.410000000000000e+02     1.410000000000000e+02     1.410000000000000e+02     1.430000000000000e+02     1.330000000000000e+02     1.350000000000000e+02     1.390000000000000e+02     1.200000000000000e+02     1.440000000000000e+02     1.490000000000000e+02     1.440000000000000e+02     1.330000000000000e+02     1.340000000000000e+02     1.210000000000000e+02     1.480000000000000e+02     1.320000000000000e+02     1.490000000000000e+02     1.300000000000000e+02     1.330000000000000e+02     1.150000000000000e+02     1.300000000000000e+02     1.410000000000000e+02     1.270000000000000e+02     1.330000000000000e+02     1.610000000000000e+02     1.370000000000000e+02     1.350000000000000e+02     1.290000000000000e+02     1.280000000000000e+02     1.380000000000000e+02     1.610000000000000e+02     1.550000000000000e+02     1.350000000000000e+02     1.280000000000000e+02     1.280000000000000e+02     1.190000000000000e+02     1.370000000000000e+02     1.440000000000000e+02     1.440000000000000e+02     1.480000000000000e+02     1.200000000000000e+02     1.280000000000000e+02     1.420000000000000e+02     1.440000000000000e+02     1.550000000000000e+02     1.420000000000000e+02     1.160000000000000e+02     1.470000000000000e+02     1.430000000000000e+02     1.600000000000000e+02     1.420000000000000e+02     1.220000000000000e+02     1.490000000000000e+02     1.500000000000000e+02     1.450000000000000e+02     1.440000000000000e+02     1.530000000000000e+02     1.280000000000000e+02     1.570000000000000e+02     1.480000000000000e+02     1.420000000000000e+02     1.400000000000000e+02     1.280000000000000e+02     1.490000000000000e+02     1.110000000000000e+02     1.230000000000000e+02     1.570000000000000e+02     1.500000000000000e+02     1.520000000000000e+02     1.480000000000000e+02     1.330000000000000e+02     1.290000000000000e+02     1.380000000000000e+02     1.410000000000000e+02     1.480000000000000e+02     1.380000000000000e+02     1.380000000000000e+02     1.230000000000000e+02     1.280000000000000e+02     1.330000000000000e+02     1.360000000000000e+02     1.470000000000000e+02     1.380000000000000e+02     1.340000000000000e+02     1.160000000000000e+02     1.440000000000000e+02     1.480000000000000e+02     1.640000000000000e+02     1.240000000000000e+02     1.290000000000000e+02     1.410000000000000e+02     1.460000000000000e+02     1.330000000000000e+02     1.800000000000000e+02     1.300000000000000e+02     1.460000000000000e+02     1.410000000000000e+02     1.420000000000000e+02     1.470000000000000e+02     1.390000000000000e+02
    3.710000000000000e+02     3.910000000000000e+02     3.930000000000000e+02     3.490000000000000e+02     3.940000000000000e+02     3.890000000000000e+02     3.990000000000000e+02     3.740000000000000e+02     3.590000000000000e+02     3.600000000000000e+02     4.000000000000000e+02     4.030000000000000e+02     3.600000000000000e+02     3.950000000000000e+02     3.680000000000000e+02     3.760000000000000e+02     3.790000000000000e+02     3.680000000000000e+02     3.290000000000000e+02     3.760000000000000e+02     4.030000000000000e+02     3.720000000000000e+02     3.440000000000000e+02     3.850000000000000e+02     3.560000000000000e+02     3.780000000000000e+02     3.940000000000000e+02     3.440000000000000e+02     4.010000000000000e+02     3.840000000000000e+02     4.150000000000000e+02     3.980000000000000e+02     3.330000000000000e+02     3.920000000000000e+02     3.850000000000000e+02     3.960000000000000e+02     3.600000000000000e+02     3.580000000000000e+02     3.790000000000000e+02     3.800000000000000e+02     3.480000000000000e+02     3.950000000000000e+02     3.490000000000000e+02     3.750000000000000e+02     3.890000000000000e+02     3.900000000000000e+02     3.540000000000000e+02     4.030000000000000e+02     3.860000000000000e+02     3.840000000000000e+02     3.770000000000000e+02     3.860000000000000e+02     3.780000000000000e+02     3.640000000000000e+02     3.840000000000000e+02     3.680000000000000e+02     3.960000000000000e+02     3.590000000000000e+02     3.590000000000000e+02     3.570000000000000e+02     3.650000000000000e+02     3.710000000000000e+02     3.400000000000000e+02     3.880000000000000e+02     3.880000000000000e+02     3.660000000000000e+02     3.690000000000000e+02     3.490000000000000e+02     3.560000000000000e+02     3.820000000000000e+02     4.040000000000000e+02     3.650000000000000e+02     3.560000000000000e+02     3.860000000000000e+02     3.770000000000000e+02     3.570000000000000e+02     3.730000000000000e+02     3.810000000000000e+02     3.800000000000000e+02     3.560000000000000e+02     3.850000000000000e+02     3.320000000000000e+02     3.730000000000000e+02     3.380000000000000e+02     3.970000000000000e+02     4.060000000000000e+02     3.900000000000000e+02     3.910000000000000e+02     4.040000000000000e+02     3.720000000000000e+02     3.420000000000000e+02     3.580000000000000e+02     3.900000000000000e+02     3.490000000000000e+02     3.420000000000000e+02     3.900000000000000e+02     3.540000000000000e+02     3.920000000000000e+02     3.630000000000000e+02     3.840000000000000e+02
    7.390000000000000e+02     7.440000000000000e+02     7.130000000000000e+02     7.370000000000000e+02     7.700000000000000e+02     7.150000000000000e+02     7.480000000000000e+02     6.750000000000000e+02     7.780000000000000e+02     7.460000000000000e+02     7.630000000000000e+02     7.200000000000000e+02     7.470000000000000e+02     7.370000000000000e+02     7.370000000000000e+02     7.170000000000000e+02     7.570000000000000e+02     7.340000000000000e+02     7.390000000000000e+02     6.880000000000000e+02     7.160000000000000e+02     7.660000000000000e+02     7.400000000000000e+02     7.900000000000000e+02     7.320000000000000e+02     7.700000000000000e+02     7.030000000000000e+02     7.350000000000000e+02     6.710000000000000e+02     6.850000000000000e+02     7.220000000000000e+02     7.330000000000000e+02     7.260000000000000e+02     7.590000000000000e+02     7.070000000000000e+02     7.250000000000000e+02     7.520000000000000e+02     8.000000000000000e+02     6.700000000000000e+02     7.750000000000000e+02     7.310000000000000e+02     7.640000000000000e+02     7.650000000000000e+02     7.420000000000000e+02     7.860000000000000e+02     7.090000000000000e+02     7.540000000000000e+02     7.240000000000000e+02     7.410000000000000e+02     7.690000000000000e+02     7.250000000000000e+02     7.710000000000000e+02     7.600000000000000e+02     7.170000000000000e+02     7.370000000000000e+02     7.370000000000000e+02     6.960000000000000e+02     7.430000000000000e+02     7.160000000000000e+02     7.440000000000000e+02     7.330000000000000e+02     7.270000000000000e+02     7.360000000000000e+02     7.620000000000000e+02     7.880000000000000e+02     7.620000000000000e+02     7.520000000000000e+02     7.300000000000000e+02     7.480000000000000e+02     7.530000000000000e+02     7.530000000000000e+02     7.140000000000000e+02     7.830000000000000e+02     7.610000000000000e+02     7.570000000000000e+02     6.720000000000000e+02     7.370000000000000e+02     7.190000000000000e+02     7.290000000000000e+02     7.210000000000000e+02     7.630000000000000e+02     7.250000000000000e+02     7.330000000000000e+02     7.300000000000000e+02     7.250000000000000e+02     7.120000000000000e+02     7.370000000000000e+02     7.090000000000000e+02     6.990000000000000e+02     7.630000000000000e+02     7.300000000000000e+02     7.180000000000000e+02     6.620000000000000e+02     7.390000000000000e+02     7.480000000000000e+02     7.750000000000000e+02     7.320000000000000e+02     7.790000000000000e+02     7.220000000000000e+02     7.050000000000000e+02
    1.160000000000000e+03     1.253000000000000e+03     1.158000000000000e+03     1.256000000000000e+03     1.253000000000000e+03     1.217000000000000e+03     1.161000000000000e+03     1.236000000000000e+03     1.138000000000000e+03     1.226000000000000e+03     1.175000000000000e+03     1.206000000000000e+03     1.291000000000000e+03     1.170000000000000e+03     1.227000000000000e+03     1.278000000000000e+03     1.176000000000000e+03     1.179000000000000e+03     1.220000000000000e+03     1.228000000000000e+03     1.192000000000000e+03     1.221000000000000e+03     1.227000000000000e+03     1.233000000000000e+03     1.200000000000000e+03     1.211000000000000e+03     1.206000000000000e+03     1.208000000000000e+03     1.214000000000000e+03     1.177000000000000e+03     1.213000000000000e+03     1.224000000000000e+03     1.223000000000000e+03     1.291000000000000e+03     1.165000000000000e+03     1.271000000000000e+03     1.211000000000000e+03     1.184000000000000e+03     1.194000000000000e+03     1.234000000000000e+03     1.175000000000000e+03     1.177000000000000e+03     1.250000000000000e+03     1.202000000000000e+03     1.231000000000000e+03     1.187000000000000e+03     1.206000000000000e+03     1.231000000000000e+03     1.189000000000000e+03     1.161000000000000e+03     1.177000000000000e+03     1.233000000000000e+03     1.195000000000000e+03     1.163000000000000e+03     1.195000000000000e+03     1.191000000000000e+03     1.174000000000000e+03     1.243000000000000e+03     1.207000000000000e+03     1.253000000000000e+03     1.214000000000000e+03     1.249000000000000e+03     1.251000000000000e+03     1.150000000000000e+03     1.236000000000000e+03     1.210000000000000e+03     1.206000000000000e+03     1.197000000000000e+03     1.138000000000000e+03     1.218000000000000e+03     1.196000000000000e+03     1.188000000000000e+03     1.236000000000000e+03     1.248000000000000e+03     1.205000000000000e+03     1.182000000000000e+03     1.225000000000000e+03     1.248000000000000e+03     1.172000000000000e+03     1.240000000000000e+03     1.232000000000000e+03     1.179000000000000e+03     1.180000000000000e+03     1.213000000000000e+03     1.198000000000000e+03     1.242000000000000e+03     1.187000000000000e+03     1.185000000000000e+03     1.149000000000000e+03     1.156000000000000e+03     1.166000000000000e+03     1.271000000000000e+03     1.212000000000000e+03     1.198000000000000e+03     1.194000000000000e+03     1.180000000000000e+03     1.208000000000000e+03     1.210000000000000e+03     1.243000000000000e+03     1.206000000000000e+03
    1.857000000000000e+03     1.865000000000000e+03     1.785000000000000e+03     1.802000000000000e+03     1.878000000000000e+03     1.821000000000000e+03     1.791000000000000e+03     1.822000000000000e+03     1.813000000000000e+03     1.820000000000000e+03     1.831000000000000e+03     1.869000000000000e+03     1.783000000000000e+03     1.749000000000000e+03     1.808000000000000e+03     1.785000000000000e+03     1.804000000000000e+03     1.775000000000000e+03     1.804000000000000e+03     1.870000000000000e+03     1.739000000000000e+03     1.823000000000000e+03     1.846000000000000e+03     1.806000000000000e+03     1.807000000000000e+03     1.840000000000000e+03     1.708000000000000e+03     1.753000000000000e+03     1.734000000000000e+03     1.770000000000000e+03     1.736000000000000e+03     1.806000000000000e+03     1.860000000000000e+03     1.830000000000000e+03     1.721000000000000e+03     1.755000000000000e+03     1.765000000000000e+03     1.789000000000000e+03     1.891000000000000e+03     1.812000000000000e+03     1.732000000000000e+03     1.842000000000000e+03     1.815000000000000e+03     1.796000000000000e+03     1.881000000000000e+03     1.788000000000000e+03     1.756000000000000e+03     1.788000000000000e+03     1.862000000000000e+03     1.771000000000000e+03     1.740000000000000e+03     1.787000000000000e+03     1.744000000000000e+03     1.834000000000000e+03     1.783000000000000e+03     1.798000000000000e+03     1.771000000000000e+03     1.773000000000000e+03     1.770000000000000e+03     1.816000000000000e+03     1.863000000000000e+03     1.769000000000000e+03     1.813000000000000e+03     1.822000000000000e+03     1.904000000000000e+03     1.818000000000000e+03     1.801000000000000e+03     1.800000000000000e+03     1.798000000000000e+03     1.795000000000000e+03     1.752000000000000e+03     1.770000000000000e+03     1.774000000000000e+03     1.792000000000000e+03     1.827000000000000e+03     1.704000000000000e+03     1.768000000000000e+03     1.782000000000000e+03     1.779000000000000e+03     1.791000000000000e+03     1.864000000000000e+03     1.831000000000000e+03     1.784000000000000e+03     1.796000000000000e+03     1.758000000000000e+03     1.735000000000000e+03     1.766000000000000e+03     1.876000000000000e+03     1.809000000000000e+03     1.801000000000000e+03     1.731000000000000e+03     1.787000000000000e+03     1.803000000000000e+03     1.698000000000000e+03     1.848000000000000e+03     1.820000000000000e+03     1.765000000000000e+03     1.879000000000000e+03     1.795000000000000e+03     1.754000000000000e+03
    2.521000000000000e+03     2.526000000000000e+03     2.547000000000000e+03     2.488000000000000e+03     2.579000000000000e+03     2.496000000000000e+03     2.552000000000000e+03     2.539000000000000e+03     2.580000000000000e+03     2.477000000000000e+03     2.462000000000000e+03     2.474000000000000e+03     2.468000000000000e+03     2.459000000000000e+03     2.413000000000000e+03     2.497000000000000e+03     2.514000000000000e+03     2.505000000000000e+03     2.487000000000000e+03     2.583000000000000e+03     2.489000000000000e+03     2.555000000000000e+03     2.589000000000000e+03     2.502000000000000e+03     2.551000000000000e+03     2.514000000000000e+03     2.507000000000000e+03     2.458000000000000e+03     2.523000000000000e+03     2.541000000000000e+03     2.531000000000000e+03     2.523000000000000e+03     2.518000000000000e+03     2.463000000000000e+03     2.464000000000000e+03     2.496000000000000e+03     2.552000000000000e+03     2.492000000000000e+03     2.555000000000000e+03     2.539000000000000e+03     2.489000000000000e+03     2.465000000000000e+03     2.487000000000000e+03     2.533000000000000e+03     2.400000000000000e+03     2.407000000000000e+03     2.489000000000000e+03     2.445000000000000e+03     2.528000000000000e+03     2.522000000000000e+03     2.436000000000000e+03     2.492000000000000e+03     2.486000000000000e+03     2.517000000000000e+03     2.498000000000000e+03     2.476000000000000e+03     2.489000000000000e+03     2.536000000000000e+03     2.482000000000000e+03     2.605000000000000e+03     2.557000000000000e+03     2.493000000000000e+03     2.556000000000000e+03     2.501000000000000e+03     2.484000000000000e+03     2.492000000000000e+03     2.404000000000000e+03     2.537000000000000e+03     2.411000000000000e+03     2.555000000000000e+03     2.543000000000000e+03     2.463000000000000e+03     2.612000000000000e+03     2.478000000000000e+03     2.563000000000000e+03     2.478000000000000e+03     2.614000000000000e+03     2.487000000000000e+03     2.522000000000000e+03     2.548000000000000e+03     2.500000000000000e+03     2.512000000000000e+03     2.478000000000000e+03     2.479000000000000e+03     2.521000000000000e+03     2.459000000000000e+03     2.527000000000000e+03     2.605000000000000e+03     2.487000000000000e+03     2.535000000000000e+03     2.485000000000000e+03     2.492000000000000e+03     2.523000000000000e+03     2.387000000000000e+03     2.585000000000000e+03     2.560000000000000e+03     2.436000000000000e+03     2.545000000000000e+03     2.527000000000000e+03     2.582000000000000e+03
    3.383000000000000e+03     3.370000000000000e+03     3.312000000000000e+03     3.378000000000000e+03     3.368000000000000e+03     3.310000000000000e+03     3.313000000000000e+03     3.351000000000000e+03     3.395000000000000e+03     3.366000000000000e+03     3.353000000000000e+03     3.426000000000000e+03     3.350000000000000e+03     3.311000000000000e+03     3.348000000000000e+03     3.283000000000000e+03     3.289000000000000e+03     3.320000000000000e+03     3.255000000000000e+03     3.356000000000000e+03     3.299000000000000e+03     3.348000000000000e+03     3.315000000000000e+03     3.275000000000000e+03     3.338000000000000e+03     3.272000000000000e+03     3.422000000000000e+03     3.287000000000000e+03     3.280000000000000e+03     3.354000000000000e+03     3.389000000000000e+03     3.291000000000000e+03     3.442000000000000e+03     3.408000000000000e+03     3.313000000000000e+03     3.268000000000000e+03     3.251000000000000e+03     3.259000000000000e+03     3.313000000000000e+03     3.334000000000000e+03     3.380000000000000e+03     3.261000000000000e+03     3.326000000000000e+03     3.366000000000000e+03     3.248000000000000e+03     3.206000000000000e+03     3.272000000000000e+03     3.359000000000000e+03     3.331000000000000e+03     3.306000000000000e+03     3.284000000000000e+03     3.333000000000000e+03     3.321000000000000e+03     3.287000000000000e+03     3.240000000000000e+03     3.361000000000000e+03     3.409000000000000e+03     3.416000000000000e+03     3.434000000000000e+03     3.313000000000000e+03     3.329000000000000e+03     3.328000000000000e+03     3.338000000000000e+03     3.472000000000000e+03     3.307000000000000e+03     3.303000000000000e+03     3.261000000000000e+03     3.384000000000000e+03     3.270000000000000e+03     3.298000000000000e+03     3.358000000000000e+03     3.318000000000000e+03     3.308000000000000e+03     3.301000000000000e+03     3.343000000000000e+03     3.396000000000000e+03     3.238000000000000e+03     3.336000000000000e+03     3.226000000000000e+03     3.345000000000000e+03     3.490000000000000e+03     3.409000000000000e+03     3.281000000000000e+03     3.332000000000000e+03     3.331000000000000e+03     3.144000000000000e+03     3.387000000000000e+03     3.304000000000000e+03     3.327000000000000e+03     3.299000000000000e+03     3.375000000000000e+03     3.334000000000000e+03     3.296000000000000e+03     3.327000000000000e+03     3.322000000000000e+03     3.360000000000000e+03     3.279000000000000e+03     3.423000000000000e+03     3.428000000000000e+03     3.374000000000000e+03
    4.138000000000000e+03     4.408000000000000e+03     4.453000000000000e+03     4.216000000000000e+03     4.341000000000000e+03     4.369000000000000e+03     4.313000000000000e+03     4.322000000000000e+03     4.312000000000000e+03     4.378000000000000e+03     4.258000000000000e+03     4.346000000000000e+03     4.331000000000000e+03     4.405000000000000e+03     4.282000000000000e+03     4.272000000000000e+03     4.304000000000000e+03     4.188000000000000e+03     4.264000000000000e+03     4.416000000000000e+03     4.271000000000000e+03     4.394000000000000e+03     4.334000000000000e+03     4.255000000000000e+03     4.181000000000000e+03     4.384000000000000e+03     4.353000000000000e+03     4.393000000000000e+03     4.262000000000000e+03     4.208000000000000e+03     4.253000000000000e+03     4.335000000000000e+03     4.303000000000000e+03     4.262000000000000e+03     4.367000000000000e+03     4.175000000000000e+03     4.204000000000000e+03     4.287000000000000e+03     4.246000000000000e+03     4.256000000000000e+03     4.228000000000000e+03     4.274000000000000e+03     4.324000000000000e+03     4.321000000000000e+03     4.291000000000000e+03     4.303000000000000e+03     4.206000000000000e+03     4.248000000000000e+03     4.297000000000000e+03     4.283000000000000e+03     4.274000000000000e+03     4.359000000000000e+03     4.366000000000000e+03     4.198000000000000e+03     4.313000000000000e+03     4.171000000000000e+03     4.259000000000000e+03     4.207000000000000e+03     4.221000000000000e+03     4.261000000000000e+03     4.296000000000000e+03     4.277000000000000e+03     4.157000000000000e+03     4.207000000000000e+03     4.291000000000000e+03     4.221000000000000e+03     4.399000000000000e+03     4.175000000000000e+03     4.336000000000000e+03     4.315000000000000e+03     4.212000000000000e+03     4.428000000000000e+03     4.304000000000000e+03     4.311000000000000e+03     4.250000000000000e+03     4.429000000000000e+03     4.346000000000000e+03     4.353000000000000e+03     4.256000000000000e+03     4.283000000000000e+03     4.292000000000000e+03     4.274000000000000e+03     4.298000000000000e+03     4.274000000000000e+03     4.239000000000000e+03     4.201000000000000e+03     4.234000000000000e+03     4.350000000000000e+03     4.289000000000000e+03     4.235000000000000e+03     4.269000000000000e+03     4.310000000000000e+03     4.197000000000000e+03     4.267000000000000e+03     4.262000000000000e+03     4.279000000000000e+03     4.312000000000000e+03     4.389000000000000e+03     4.327000000000000e+03     4.246000000000000e+03
    5.416000000000000e+03     5.414000000000000e+03     5.373000000000000e+03     5.447000000000000e+03     5.426000000000000e+03     5.421000000000000e+03     5.466000000000000e+03     5.352000000000000e+03     5.349000000000000e+03     5.264000000000000e+03     5.212000000000000e+03     5.370000000000000e+03     5.370000000000000e+03     5.287000000000000e+03     5.300000000000000e+03     5.309000000000000e+03     5.397000000000000e+03     5.439000000000000e+03     5.559000000000000e+03     5.298000000000000e+03     5.265000000000000e+03     5.393000000000000e+03     5.283000000000000e+03     5.365000000000000e+03     5.407000000000000e+03     5.432000000000000e+03     5.330000000000000e+03     5.270000000000000e+03     5.313000000000000e+03     5.396000000000000e+03     5.392000000000000e+03     5.493000000000000e+03     5.256000000000000e+03     5.376000000000000e+03     5.467000000000000e+03     5.352000000000000e+03     5.435000000000000e+03     5.531000000000000e+03     5.302000000000000e+03     5.509000000000000e+03     5.307000000000000e+03     5.395000000000000e+03     5.357000000000000e+03     5.310000000000000e+03     5.411000000000000e+03     5.412000000000000e+03     5.283000000000000e+03     5.412000000000000e+03     5.425000000000000e+03     5.364000000000000e+03     5.267000000000000e+03     5.356000000000000e+03     5.448000000000000e+03     5.446000000000000e+03     5.322000000000000e+03     5.334000000000000e+03     5.296000000000000e+03     5.274000000000000e+03     5.330000000000000e+03     5.320000000000000e+03     5.335000000000000e+03     5.385000000000000e+03     5.381000000000000e+03     5.389000000000000e+03     5.332000000000000e+03     5.355000000000000e+03     5.298000000000000e+03     5.524000000000000e+03     5.202000000000000e+03     5.396000000000000e+03     5.140000000000000e+03     5.440000000000000e+03     5.389000000000000e+03     5.313000000000000e+03     5.202000000000000e+03     5.330000000000000e+03     5.422000000000000e+03     5.419000000000000e+03     5.323000000000000e+03     5.221000000000000e+03     5.387000000000000e+03     5.303000000000000e+03     5.327000000000000e+03     5.338000000000000e+03     5.370000000000000e+03     5.289000000000000e+03     5.417000000000000e+03     5.478000000000000e+03     5.193000000000000e+03     5.479000000000000e+03     5.351000000000000e+03     5.494000000000000e+03     5.278000000000000e+03     5.405000000000000e+03     5.370000000000000e+03     5.406000000000000e+03     5.376000000000000e+03     5.391000000000000e+03     5.231000000000000e+03     5.352000000000000e+03
    6.552000000000000e+03     6.551000000000000e+03     6.496000000000000e+03     6.419000000000000e+03     6.666000000000000e+03     6.623000000000000e+03     6.394000000000000e+03     6.522000000000000e+03     6.702000000000000e+03     6.612000000000000e+03     6.503000000000000e+03     6.539000000000000e+03     6.443000000000000e+03     6.508000000000000e+03     6.396000000000000e+03     6.531000000000000e+03     6.484000000000000e+03     6.696000000000000e+03     6.437000000000000e+03     6.478000000000000e+03     6.424000000000000e+03     6.553000000000000e+03     6.483000000000000e+03     6.587000000000000e+03     6.599000000000000e+03     6.595000000000000e+03     6.568000000000000e+03     6.502000000000000e+03     6.469000000000000e+03     6.517000000000000e+03     6.463000000000000e+03     6.450000000000000e+03     6.500000000000000e+03     6.507000000000000e+03     6.444000000000000e+03     6.505000000000000e+03     6.598000000000000e+03     6.462000000000000e+03     6.477000000000000e+03     6.634000000000000e+03     6.673000000000000e+03     6.398000000000000e+03     6.549000000000000e+03     6.608000000000000e+03     6.684000000000000e+03     6.749000000000000e+03     6.548000000000000e+03     6.561000000000000e+03     6.530000000000000e+03     6.480000000000000e+03     6.353000000000000e+03     6.458000000000000e+03     6.560000000000000e+03     6.608000000000000e+03     6.523000000000000e+03     6.585000000000000e+03     6.641000000000000e+03     6.567000000000000e+03     6.582000000000000e+03     6.630000000000000e+03     6.517000000000000e+03     6.526000000000000e+03     6.552000000000000e+03     6.479000000000000e+03     6.624000000000000e+03     6.551000000000000e+03     6.556000000000000e+03     6.445000000000000e+03     6.546000000000000e+03     6.382000000000000e+03     6.491000000000000e+03     6.430000000000000e+03     6.540000000000000e+03     6.553000000000000e+03     6.533000000000000e+03     6.737000000000000e+03     6.702000000000000e+03     6.636000000000000e+03     6.681000000000000e+03     6.467000000000000e+03     6.469000000000000e+03     6.519000000000000e+03     6.656000000000000e+03     6.566000000000000e+03     6.451000000000000e+03     6.542000000000000e+03     6.435000000000000e+03     6.574000000000000e+03     6.536000000000000e+03     6.581000000000000e+03     6.430000000000000e+03     6.522000000000000e+03     6.349000000000000e+03     6.553000000000000e+03     6.617000000000000e+03     6.497000000000000e+03     6.614000000000000e+03     6.532000000000000e+03     6.670000000000000e+03     6.606000000000000e+03
    7.886000000000000e+03     7.722000000000000e+03     7.915000000000000e+03     7.895000000000000e+03     7.878000000000000e+03     7.936000000000000e+03     7.705000000000000e+03     7.743000000000000e+03     7.853000000000000e+03     7.867000000000000e+03     7.982000000000000e+03     7.816000000000000e+03     7.782000000000000e+03     7.707000000000000e+03     7.890000000000000e+03     7.808000000000000e+03     7.838000000000000e+03     7.706000000000000e+03     7.776000000000000e+03     7.800000000000000e+03     7.722000000000000e+03     7.811000000000000e+03     7.825000000000000e+03     7.869000000000000e+03     7.940000000000000e+03     7.761000000000000e+03     7.916000000000000e+03     7.842000000000000e+03     7.812000000000000e+03     7.958000000000000e+03     7.744000000000000e+03     7.925000000000000e+03     7.781000000000000e+03     7.757000000000000e+03     7.800000000000000e+03     7.780000000000000e+03     7.755000000000000e+03     7.663000000000000e+03     7.937000000000000e+03     7.858000000000000e+03     7.636000000000000e+03     7.715000000000000e+03     7.821000000000000e+03     7.745000000000000e+03     7.807000000000000e+03     7.905000000000000e+03     7.923000000000000e+03     7.992000000000000e+03     7.730000000000000e+03     7.785000000000000e+03     7.935000000000000e+03     7.838000000000000e+03     7.861000000000000e+03     7.910000000000000e+03     7.859000000000000e+03     7.861000000000000e+03     7.760000000000000e+03     7.873000000000000e+03     7.764000000000000e+03     7.756000000000000e+03     7.946000000000000e+03     7.667000000000000e+03     7.799000000000000e+03     7.772000000000000e+03     7.949000000000000e+03     7.786000000000000e+03     7.578000000000000e+03     7.848000000000000e+03     7.815000000000000e+03     7.638000000000000e+03     7.720000000000000e+03     7.797000000000000e+03     7.674000000000000e+03     7.899000000000000e+03     7.673000000000000e+03     7.938000000000000e+03     7.646000000000000e+03     7.816000000000000e+03     7.787000000000000e+03     7.663000000000000e+03     7.848000000000000e+03     7.931000000000000e+03     7.936000000000000e+03     7.817000000000000e+03     7.783000000000000e+03     7.866000000000000e+03     7.922000000000000e+03     7.960000000000000e+03     7.916000000000000e+03     7.772000000000000e+03     7.780000000000000e+03     7.755000000000000e+03     7.922000000000000e+03     7.861000000000000e+03     7.899000000000000e+03     7.999000000000000e+03     7.862000000000000e+03     7.878000000000000e+03     7.853000000000000e+03     7.994000000000000e+03
    9.164000000000000e+03     9.168000000000000e+03     9.292000000000000e+03     9.184000000000000e+03     9.383000000000000e+03     9.145000000000000e+03     9.316000000000000e+03     9.229000000000000e+03     9.157000000000000e+03     9.231000000000000e+03     9.196000000000000e+03     9.028000000000000e+03     9.221000000000000e+03     9.171000000000000e+03     8.995000000000000e+03     9.223000000000000e+03     9.198000000000000e+03     9.236000000000000e+03     9.103000000000000e+03     9.231000000000000e+03     9.367000000000000e+03     9.158000000000000e+03     9.236000000000000e+03     9.290000000000000e+03     9.247000000000000e+03     9.073000000000000e+03     9.156000000000000e+03     9.154000000000000e+03     9.110000000000000e+03     9.332000000000000e+03     9.299000000000000e+03     9.254000000000000e+03     9.092000000000000e+03     9.283000000000000e+03     9.355000000000000e+03     9.228000000000000e+03     9.136000000000000e+03     9.292000000000000e+03     9.279000000000000e+03     9.313000000000000e+03     9.084000000000000e+03     9.146000000000000e+03     9.405000000000000e+03     9.146000000000000e+03     9.182000000000000e+03     9.185000000000000e+03     9.040000000000000e+03     9.321000000000000e+03     9.206000000000000e+03     9.192000000000000e+03     9.231000000000000e+03     9.101000000000000e+03     9.276000000000000e+03     9.302000000000000e+03     9.411000000000000e+03     9.186000000000000e+03     9.282000000000000e+03     9.245000000000000e+03     9.170000000000000e+03     9.245000000000000e+03     9.353000000000000e+03     9.421000000000000e+03     9.165000000000000e+03     9.298000000000000e+03     9.265000000000000e+03     9.192000000000000e+03     9.234000000000000e+03     9.205000000000000e+03     9.260000000000000e+03     9.171000000000000e+03     9.236000000000000e+03     9.158000000000000e+03     9.242000000000000e+03     9.167000000000000e+03     9.474000000000000e+03     9.337000000000000e+03     9.286000000000000e+03     9.169000000000000e+03     9.297000000000000e+03     9.294000000000000e+03     9.447000000000000e+03     9.284000000000000e+03     9.220000000000000e+03     9.294000000000000e+03     9.242000000000000e+03     9.425000000000000e+03     9.194000000000000e+03     9.294000000000000e+03     9.370000000000000e+03     9.249000000000000e+03     9.307000000000000e+03     9.374000000000000e+03     9.242000000000000e+03     9.146000000000000e+03     9.297000000000000e+03     9.304000000000000e+03     9.138000000000000e+03     9.467000000000000e+03     9.313000000000000e+03     9.448000000000000e+03
    1.107000000000000e+04     1.092100000000000e+04     1.082400000000000e+04     1.070100000000000e+04     1.109000000000000e+04     1.084800000000000e+04     1.072400000000000e+04     1.073300000000000e+04     1.075800000000000e+04     1.085400000000000e+04     1.075800000000000e+04     1.063400000000000e+04     1.066100000000000e+04     1.079300000000000e+04     1.087500000000000e+04     1.078600000000000e+04     1.061100000000000e+04     1.086300000000000e+04     1.069200000000000e+04     1.068600000000000e+04     1.087700000000000e+04     1.078600000000000e+04     1.069000000000000e+04     1.071200000000000e+04     1.098500000000000e+04     1.082100000000000e+04     1.079800000000000e+04     1.066300000000000e+04     1.073400000000000e+04     1.076300000000000e+04     1.063300000000000e+04     1.080300000000000e+04     1.074500000000000e+04     1.081700000000000e+04     1.074100000000000e+04     1.078700000000000e+04     1.058700000000000e+04     1.092400000000000e+04     1.083500000000000e+04     1.077600000000000e+04     1.088800000000000e+04     1.074900000000000e+04     1.071700000000000e+04     1.087200000000000e+04     1.082700000000000e+04     1.081800000000000e+04     1.073900000000000e+04     1.051400000000000e+04     1.092400000000000e+04     1.054600000000000e+04     1.083800000000000e+04     1.081200000000000e+04     1.061600000000000e+04     1.083700000000000e+04     1.081900000000000e+04     1.063000000000000e+04     1.078600000000000e+04     1.080800000000000e+04     1.071500000000000e+04     1.091000000000000e+04     1.049200000000000e+04     1.087300000000000e+04     1.092200000000000e+04     1.057900000000000e+04     1.080700000000000e+04     1.070000000000000e+04     1.072200000000000e+04     1.072800000000000e+04     1.087800000000000e+04     1.085700000000000e+04     1.080300000000000e+04     1.085900000000000e+04     1.083000000000000e+04     1.095000000000000e+04     1.086100000000000e+04     1.076700000000000e+04     1.099900000000000e+04     1.076200000000000e+04     1.076900000000000e+04     1.087500000000000e+04     1.103600000000000e+04     1.077600000000000e+04     1.086000000000000e+04     1.082800000000000e+04     1.098000000000000e+04     1.106500000000000e+04     1.077600000000000e+04     1.100800000000000e+04     1.061900000000000e+04     1.071900000000000e+04     1.083900000000000e+04     1.100000000000000e+04     1.068900000000000e+04     1.076700000000000e+04     1.070500000000000e+04     1.111700000000000e+04     1.088200000000000e+04     1.098600000000000e+04     1.102900000000000e+04     1.072200000000000e+04
    1.234600000000000e+04     1.232200000000000e+04     1.224600000000000e+04     1.234700000000000e+04     1.242600000000000e+04     1.237500000000000e+04     1.233300000000000e+04     1.223200000000000e+04     1.239000000000000e+04     1.248600000000000e+04     1.236900000000000e+04     1.247500000000000e+04     1.233200000000000e+04     1.224100000000000e+04     1.232600000000000e+04     1.230700000000000e+04     1.222000000000000e+04     1.250000000000000e+04     1.240000000000000e+04     1.228900000000000e+04     1.223200000000000e+04     1.244900000000000e+04     1.232100000000000e+04     1.229700000000000e+04     1.234300000000000e+04     1.211900000000000e+04     1.235200000000000e+04     1.242900000000000e+04     1.246000000000000e+04     1.231000000000000e+04     1.227100000000000e+04     1.238900000000000e+04     1.257500000000000e+04     1.222100000000000e+04     1.222500000000000e+04     1.228100000000000e+04     1.223900000000000e+04     1.225800000000000e+04     1.246500000000000e+04     1.226800000000000e+04     1.229100000000000e+04     1.209500000000000e+04     1.241700000000000e+04     1.224200000000000e+04     1.237000000000000e+04     1.239300000000000e+04     1.237500000000000e+04     1.230400000000000e+04     1.239100000000000e+04     1.224800000000000e+04     1.257700000000000e+04     1.245200000000000e+04     1.258700000000000e+04     1.254100000000000e+04     1.248800000000000e+04     1.263100000000000e+04     1.258200000000000e+04     1.230100000000000e+04     1.249900000000000e+04     1.231100000000000e+04     1.243900000000000e+04     1.240300000000000e+04     1.243300000000000e+04     1.269400000000000e+04     1.246100000000000e+04     1.226200000000000e+04     1.241000000000000e+04     1.237600000000000e+04     1.238600000000000e+04     1.254400000000000e+04     1.250800000000000e+04     1.249900000000000e+04     1.254200000000000e+04     1.262300000000000e+04     1.248900000000000e+04     1.247400000000000e+04     1.233000000000000e+04     1.251800000000000e+04     1.240300000000000e+04     1.258300000000000e+04     1.255100000000000e+04     1.232700000000000e+04     1.231100000000000e+04     1.246100000000000e+04     1.273000000000000e+04     1.258300000000000e+04     1.228500000000000e+04     1.255200000000000e+04     1.237800000000000e+04     1.218400000000000e+04     1.249300000000000e+04     1.246800000000000e+04     1.238000000000000e+04     1.238400000000000e+04     1.252100000000000e+04     1.238300000000000e+04     1.245200000000000e+04     1.255700000000000e+04     1.243500000000000e+04     1.248800000000000e+04
    1.411000000000000e+04     1.415000000000000e+04     1.401500000000000e+04     1.438000000000000e+04     1.419900000000000e+04     1.422500000000000e+04     1.408700000000000e+04     1.426100000000000e+04     1.420000000000000e+04     1.403800000000000e+04     1.420800000000000e+04     1.396700000000000e+04     1.412700000000000e+04     1.419300000000000e+04     1.431300000000000e+04     1.418000000000000e+04     1.408100000000000e+04     1.404000000000000e+04     1.409300000000000e+04     1.398900000000000e+04     1.404600000000000e+04     1.407800000000000e+04     1.415400000000000e+04     1.405200000000000e+04     1.406600000000000e+04     1.409800000000000e+04     1.412600000000000e+04     1.412400000000000e+04     1.394200000000000e+04     1.416300000000000e+04     1.426800000000000e+04     1.396600000000000e+04     1.424000000000000e+04     1.390300000000000e+04     1.416600000000000e+04     1.415800000000000e+04     1.414500000000000e+04     1.411500000000000e+04     1.393000000000000e+04     1.411400000000000e+04     1.414900000000000e+04     1.404800000000000e+04     1.419500000000000e+04     1.438000000000000e+04     1.409600000000000e+04     1.405700000000000e+04     1.414900000000000e+04     1.451300000000000e+04     1.417300000000000e+04     1.414000000000000e+04     1.415400000000000e+04     1.413000000000000e+04     1.410200000000000e+04     1.423700000000000e+04     1.397400000000000e+04     1.421800000000000e+04     1.415700000000000e+04     1.399100000000000e+04     1.424000000000000e+04     1.397200000000000e+04     1.428200000000000e+04     1.412100000000000e+04     1.420400000000000e+04     1.431900000000000e+04     1.438600000000000e+04     1.397700000000000e+04     1.433200000000000e+04     1.437000000000000e+04     1.428300000000000e+04     1.430000000000000e+04     1.429100000000000e+04     1.413500000000000e+04     1.419500000000000e+04     1.429300000000000e+04     1.449400000000000e+04     1.421900000000000e+04     1.433700000000000e+04     1.441400000000000e+04     1.401700000000000e+04     1.416300000000000e+04     1.427900000000000e+04     1.398400000000000e+04     1.399900000000000e+04     1.430500000000000e+04     1.438300000000000e+04     1.443400000000000e+04     1.400300000000000e+04     1.391700000000000e+04     1.429800000000000e+04     1.390900000000000e+04     1.448200000000000e+04     1.432400000000000e+04     1.416300000000000e+04     1.432000000000000e+04     1.422600000000000e+04     1.445400000000000e+04     1.454000000000000e+04     1.424600000000000e+04     1.447900000000000e+04     1.445700000000000e+04
    1.554900000000000e+04     1.572200000000000e+04     1.621000000000000e+04     1.621200000000000e+04     1.586700000000000e+04     1.613600000000000e+04     1.610800000000000e+04     1.600900000000000e+04     1.592800000000000e+04     1.623400000000000e+04     1.598000000000000e+04     1.589400000000000e+04     1.588200000000000e+04     1.611900000000000e+04     1.564800000000000e+04     1.588400000000000e+04     1.615000000000000e+04     1.594400000000000e+04     1.594100000000000e+04     1.605900000000000e+04     1.597700000000000e+04     1.621000000000000e+04     1.592700000000000e+04     1.609300000000000e+04     1.618300000000000e+04     1.606300000000000e+04     1.601300000000000e+04     1.620600000000000e+04     1.597000000000000e+04     1.594900000000000e+04     1.605300000000000e+04     1.606500000000000e+04     1.585300000000000e+04     1.611000000000000e+04     1.595800000000000e+04     1.591200000000000e+04     1.609500000000000e+04     1.617300000000000e+04     1.609300000000000e+04     1.562300000000000e+04     1.599500000000000e+04     1.592700000000000e+04     1.604100000000000e+04     1.610400000000000e+04     1.615500000000000e+04     1.613600000000000e+04     1.621600000000000e+04     1.619200000000000e+04     1.622100000000000e+04     1.608800000000000e+04     1.604000000000000e+04     1.581400000000000e+04     1.625600000000000e+04     1.607500000000000e+04     1.591100000000000e+04     1.620600000000000e+04     1.600400000000000e+04     1.615400000000000e+04     1.593400000000000e+04     1.608900000000000e+04     1.586300000000000e+04     1.590300000000000e+04     1.614700000000000e+04     1.603600000000000e+04     1.628800000000000e+04     1.611900000000000e+04     1.597500000000000e+04     1.623500000000000e+04     1.600600000000000e+04     1.605600000000000e+04     1.594700000000000e+04     1.603300000000000e+04     1.627300000000000e+04     1.631300000000000e+04     1.609000000000000e+04     1.614800000000000e+04     1.615500000000000e+04     1.607500000000000e+04     1.602800000000000e+04     1.619200000000000e+04     1.618300000000000e+04     1.618200000000000e+04     1.626400000000000e+04     1.619300000000000e+04     1.600600000000000e+04     1.605300000000000e+04     1.598200000000000e+04     1.621800000000000e+04     1.601300000000000e+04     1.603300000000000e+04     1.618700000000000e+04     1.613300000000000e+04     1.595200000000000e+04     1.606600000000000e+04     1.604100000000000e+04     1.616800000000000e+04     1.627400000000000e+04     1.632100000000000e+04     1.621100000000000e+04     1.603200000000000e+04
    1.777500000000000e+04     1.787800000000000e+04     1.792800000000000e+04     1.806200000000000e+04     1.805700000000000e+04     1.802400000000000e+04     1.814100000000000e+04     1.793100000000000e+04     1.809000000000000e+04     1.793000000000000e+04     1.799800000000000e+04     1.799700000000000e+04     1.779100000000000e+04     1.806900000000000e+04     1.798000000000000e+04     1.780200000000000e+04     1.808100000000000e+04     1.799300000000000e+04     1.794100000000000e+04     1.815600000000000e+04     1.816600000000000e+04     1.815200000000000e+04     1.789100000000000e+04     1.820500000000000e+04     1.805500000000000e+04     1.805900000000000e+04     1.800200000000000e+04     1.787800000000000e+04     1.803300000000000e+04     1.805100000000000e+04     1.813400000000000e+04     1.812400000000000e+04     1.793700000000000e+04     1.791300000000000e+04     1.819700000000000e+04     1.802700000000000e+04     1.816100000000000e+04     1.779900000000000e+04     1.778900000000000e+04     1.814500000000000e+04     1.820800000000000e+04     1.786200000000000e+04     1.795700000000000e+04     1.796700000000000e+04     1.793500000000000e+04     1.817600000000000e+04     1.800600000000000e+04     1.795300000000000e+04     1.791100000000000e+04     1.771900000000000e+04     1.817000000000000e+04     1.800000000000000e+04     1.812400000000000e+04     1.819800000000000e+04     1.819700000000000e+04     1.832800000000000e+04     1.798300000000000e+04     1.803400000000000e+04     1.808600000000000e+04     1.802000000000000e+04     1.806500000000000e+04     1.809900000000000e+04     1.788800000000000e+04     1.800500000000000e+04     1.816200000000000e+04     1.806200000000000e+04     1.816800000000000e+04     1.789500000000000e+04     1.794500000000000e+04     1.809200000000000e+04     1.769100000000000e+04     1.791000000000000e+04     1.810700000000000e+04     1.803800000000000e+04     1.795100000000000e+04     1.814800000000000e+04     1.818200000000000e+04     1.808700000000000e+04     1.856500000000000e+04     1.824700000000000e+04     1.817700000000000e+04     1.815100000000000e+04     1.805000000000000e+04     1.818000000000000e+04     1.817000000000000e+04     1.828700000000000e+04     1.815700000000000e+04     1.804300000000000e+04     1.821900000000000e+04     1.787900000000000e+04     1.842900000000000e+04     1.785900000000000e+04     1.835200000000000e+04     1.838600000000000e+04     1.798600000000000e+04     1.801600000000000e+04     1.832900000000000e+04     1.819900000000000e+04     1.797800000000000e+04     1.818600000000000e+04
    1.994100000000000e+04     1.989300000000000e+04     2.018700000000000e+04     1.999300000000000e+04     2.003600000000000e+04     1.993100000000000e+04     2.008600000000000e+04     1.979800000000000e+04     1.997100000000000e+04     2.003500000000000e+04     1.982500000000000e+04     2.003100000000000e+04     1.993000000000000e+04     2.018000000000000e+04     2.005400000000000e+04     2.002600000000000e+04     1.984800000000000e+04     2.025700000000000e+04     2.020700000000000e+04     2.011800000000000e+04     1.995100000000000e+04     2.019000000000000e+04     1.989900000000000e+04     2.024600000000000e+04     2.010600000000000e+04     1.999300000000000e+04     2.010600000000000e+04     2.007100000000000e+04     1.978100000000000e+04     2.004300000000000e+04     2.004100000000000e+04     2.013000000000000e+04     2.004600000000000e+04     2.023100000000000e+04     2.007800000000000e+04     2.026500000000000e+04     1.980400000000000e+04     2.018300000000000e+04     1.996500000000000e+04     2.023600000000000e+04     1.989000000000000e+04     1.999000000000000e+04     2.018500000000000e+04     2.001100000000000e+04     2.009000000000000e+04     2.017200000000000e+04     2.027800000000000e+04     1.984200000000000e+04     2.010900000000000e+04     2.021500000000000e+04     2.016100000000000e+04     2.008900000000000e+04     2.010000000000000e+04     1.988500000000000e+04     2.022600000000000e+04     1.998400000000000e+04     2.029600000000000e+04     2.005500000000000e+04     2.012500000000000e+04     2.008800000000000e+04     2.019500000000000e+04     2.024300000000000e+04     2.032900000000000e+04     2.036100000000000e+04     2.022200000000000e+04     1.999500000000000e+04     2.053500000000000e+04     1.994100000000000e+04     2.017200000000000e+04     1.975800000000000e+04     2.037700000000000e+04     2.025700000000000e+04     2.003300000000000e+04     2.028700000000000e+04     2.020000000000000e+04     2.024000000000000e+04     2.031400000000000e+04     2.018900000000000e+04     2.024500000000000e+04     1.996500000000000e+04     2.034900000000000e+04     1.999600000000000e+04     2.017800000000000e+04     2.040400000000000e+04     2.030100000000000e+04     2.028200000000000e+04     2.051800000000000e+04     2.029100000000000e+04     2.027000000000000e+04     2.033800000000000e+04     2.011500000000000e+04     2.023200000000000e+04     2.046400000000000e+04     2.038600000000000e+04     2.031600000000000e+04     2.020300000000000e+04     2.019500000000000e+04     2.016900000000000e+04     2.041300000000000e+04     2.045800000000000e+04
    2.229400000000000e+04     2.236800000000000e+04     2.240000000000000e+04     2.211100000000000e+04     2.235700000000000e+04     2.235600000000000e+04     2.228000000000000e+04     2.238700000000000e+04     2.230300000000000e+04     2.219100000000000e+04     2.243900000000000e+04     2.264300000000000e+04     2.246600000000000e+04     2.217100000000000e+04     2.251800000000000e+04     2.224500000000000e+04     2.241700000000000e+04     2.231500000000000e+04     2.223400000000000e+04     2.216100000000000e+04     2.216800000000000e+04     2.264500000000000e+04     2.228000000000000e+04     2.235700000000000e+04     2.232500000000000e+04     2.256000000000000e+04     2.210100000000000e+04     2.232000000000000e+04     2.226500000000000e+04     2.225100000000000e+04     2.214700000000000e+04     2.184500000000000e+04     2.225200000000000e+04     2.215500000000000e+04     2.226800000000000e+04     2.217900000000000e+04     2.205000000000000e+04     2.194400000000000e+04     2.192600000000000e+04     2.199500000000000e+04     2.228200000000000e+04     2.221600000000000e+04     2.242700000000000e+04     2.215900000000000e+04     2.229400000000000e+04     2.212200000000000e+04     2.235500000000000e+04     2.233200000000000e+04     2.234700000000000e+04     2.240600000000000e+04     2.251500000000000e+04     2.209800000000000e+04     2.260800000000000e+04     2.220100000000000e+04     2.221500000000000e+04     2.235200000000000e+04     2.252300000000000e+04     2.208000000000000e+04     2.233600000000000e+04     2.250100000000000e+04     2.238000000000000e+04     2.256600000000000e+04     2.237300000000000e+04     2.225300000000000e+04     2.229800000000000e+04     2.244200000000000e+04     2.245300000000000e+04     2.267200000000000e+04     2.240300000000000e+04     2.239800000000000e+04     2.218400000000000e+04     2.254300000000000e+04     2.230800000000000e+04     2.210700000000000e+04     2.234300000000000e+04     2.242200000000000e+04     2.230900000000000e+04     2.244200000000000e+04     2.232700000000000e+04     2.212000000000000e+04     2.233100000000000e+04     2.240300000000000e+04     2.235600000000000e+04     2.236100000000000e+04     2.259100000000000e+04     2.259500000000000e+04     2.244900000000000e+04     2.271200000000000e+04     2.271000000000000e+04     2.226200000000000e+04     2.264000000000000e+04     2.251400000000000e+04     2.254300000000000e+04     2.263900000000000e+04     2.231500000000000e+04     2.270500000000000e+04     2.241300000000000e+04     2.290600000000000e+04     2.250500000000000e+04     2.261300000000000e+04
    2.471300000000000e+04     2.479300000000000e+04     2.441500000000000e+04     2.465800000000000e+04     2.450300000000000e+04     2.469900000000000e+04     2.476900000000000e+04     2.461800000000000e+04     2.463500000000000e+04     2.444300000000000e+04     2.445800000000000e+04     2.430700000000000e+04     2.469200000000000e+04     2.477400000000000e+04     2.424700000000000e+04     2.439700000000000e+04     2.480300000000000e+04     2.493700000000000e+04     2.481700000000000e+04     2.459200000000000e+04     2.471800000000000e+04     2.446200000000000e+04     2.480200000000000e+04     2.466400000000000e+04     2.454400000000000e+04     2.457700000000000e+04     2.472200000000000e+04     2.481400000000000e+04     2.481500000000000e+04     2.462700000000000e+04     2.465700000000000e+04     2.459500000000000e+04     2.470500000000000e+04     2.470600000000000e+04     2.481500000000000e+04     2.456000000000000e+04     2.490100000000000e+04     2.467500000000000e+04     2.451300000000000e+04     2.464300000000000e+04     2.439300000000000e+04     2.494000000000000e+04     2.441400000000000e+04     2.487500000000000e+04     2.480600000000000e+04     2.467300000000000e+04     2.479900000000000e+04     2.497000000000000e+04     2.462400000000000e+04     2.463500000000000e+04     2.463700000000000e+04     2.448200000000000e+04     2.521800000000000e+04     2.447300000000000e+04     2.474200000000000e+04     2.461900000000000e+04     2.467400000000000e+04     2.472500000000000e+04     2.463600000000000e+04     2.483500000000000e+04     2.479700000000000e+04     2.437600000000000e+04     2.468100000000000e+04     2.450800000000000e+04     2.480700000000000e+04     2.483900000000000e+04     2.462500000000000e+04     2.479300000000000e+04     2.476500000000000e+04     2.461100000000000e+04     2.452800000000000e+04     2.472600000000000e+04     2.453100000000000e+04     2.494800000000000e+04     2.497400000000000e+04     2.463800000000000e+04     2.493800000000000e+04     2.487600000000000e+04     2.471400000000000e+04     2.508400000000000e+04     2.471600000000000e+04     2.468600000000000e+04     2.472100000000000e+04     2.515700000000000e+04     2.498500000000000e+04     2.501200000000000e+04     2.499400000000000e+04     2.506200000000000e+04     2.496000000000000e+04     2.486700000000000e+04     2.515600000000000e+04     2.498900000000000e+04     2.488600000000000e+04     2.502800000000000e+04     2.483000000000000e+04     2.502900000000000e+04     2.471600000000000e+04     2.504000000000000e+04     2.538900000000000e+04     2.490100000000000e+04
    2.699700000000000e+04     2.712400000000000e+04     2.699200000000000e+04     2.702700000000000e+04     2.658500000000000e+04     2.710000000000000e+04     2.715900000000000e+04     2.693200000000000e+04     2.695400000000000e+04     2.667200000000000e+04     2.683700000000000e+04     2.694300000000000e+04     2.707800000000000e+04     2.690400000000000e+04     2.716600000000000e+04     2.702200000000000e+04     2.700600000000000e+04     2.733500000000000e+04     2.705500000000000e+04     2.695100000000000e+04     2.712800000000000e+04     2.694700000000000e+04     2.697900000000000e+04     2.702000000000000e+04     2.716700000000000e+04     2.693800000000000e+04     2.667500000000000e+04     2.684200000000000e+04     2.711800000000000e+04     2.700700000000000e+04     2.701200000000000e+04     2.705000000000000e+04     2.741200000000000e+04     2.738900000000000e+04     2.696200000000000e+04     2.718500000000000e+04     2.732600000000000e+04     2.708200000000000e+04     2.712300000000000e+04     2.702200000000000e+04     2.694000000000000e+04     2.699200000000000e+04     2.727500000000000e+04     2.712600000000000e+04     2.705300000000000e+04     2.719100000000000e+04     2.701300000000000e+04     2.721500000000000e+04     2.728300000000000e+04     2.691300000000000e+04     2.689300000000000e+04     2.724000000000000e+04     2.729600000000000e+04     2.710900000000000e+04     2.744800000000000e+04     2.730200000000000e+04     2.720600000000000e+04     2.721700000000000e+04     2.748700000000000e+04     2.742800000000000e+04     2.701400000000000e+04     2.685400000000000e+04     2.710000000000000e+04     2.694600000000000e+04     2.710400000000000e+04     2.707400000000000e+04     2.720600000000000e+04     2.716100000000000e+04     2.733300000000000e+04     2.718300000000000e+04     2.700400000000000e+04     2.734500000000000e+04     2.728500000000000e+04     2.736100000000000e+04     2.733600000000000e+04     2.705700000000000e+04     2.733400000000000e+04     2.727500000000000e+04     2.737200000000000e+04     2.722100000000000e+04     2.760800000000000e+04     2.742600000000000e+04     2.725300000000000e+04     2.716400000000000e+04     2.736500000000000e+04     2.731400000000000e+04     2.740500000000000e+04     2.706200000000000e+04     2.738800000000000e+04     2.764000000000000e+04     2.766900000000000e+04     2.740200000000000e+04     2.755900000000000e+04     2.721500000000000e+04     2.727900000000000e+04     2.785500000000000e+04     2.761700000000000e+04     2.740400000000000e+04     2.753800000000000e+04     2.748600000000000e+04
    2.959800000000000e+04     2.938300000000000e+04     2.939400000000000e+04     2.988500000000000e+04     2.961900000000000e+04     2.976000000000000e+04     2.945500000000000e+04     2.946100000000000e+04     2.971800000000000e+04     2.968200000000000e+04     2.964100000000000e+04     2.943800000000000e+04     2.962500000000000e+04     2.969100000000000e+04     2.953500000000000e+04     2.943100000000000e+04     2.947600000000000e+04     2.958300000000000e+04     2.978100000000000e+04     2.943800000000000e+04     2.958700000000000e+04     2.956500000000000e+04     2.937200000000000e+04     2.935800000000000e+04     2.937400000000000e+04     2.940900000000000e+04     2.964000000000000e+04     2.941900000000000e+04     2.968100000000000e+04     2.921700000000000e+04     2.941000000000000e+04     2.983700000000000e+04     2.956500000000000e+04     2.947000000000000e+04     2.957200000000000e+04     2.972100000000000e+04     2.961500000000000e+04     2.979800000000000e+04     2.954700000000000e+04     2.961900000000000e+04     2.958100000000000e+04     2.943900000000000e+04     2.970100000000000e+04     2.950400000000000e+04     2.972400000000000e+04     2.964400000000000e+04     2.984200000000000e+04     2.965500000000000e+04     2.993200000000000e+04     2.961300000000000e+04     2.938900000000000e+04     2.969700000000000e+04     3.001900000000000e+04     2.974800000000000e+04     2.984100000000000e+04     2.974300000000000e+04     2.989000000000000e+04     2.957400000000000e+04     2.952000000000000e+04     2.955000000000000e+04     2.979400000000000e+04     2.951400000000000e+04     2.977400000000000e+04     2.957400000000000e+04     2.949700000000000e+04     2.956700000000000e+04     3.008900000000000e+04     2.983300000000000e+04     2.990200000000000e+04     2.943900000000000e+04     2.973100000000000e+04     2.956900000000000e+04     2.977900000000000e+04     2.960000000000000e+04     2.993500000000000e+04     2.980000000000000e+04     2.985700000000000e+04     2.990700000000000e+04     2.967700000000000e+04     2.952300000000000e+04     2.962800000000000e+04     3.012000000000000e+04     2.979900000000000e+04     3.006500000000000e+04     2.963500000000000e+04     2.967200000000000e+04     2.972800000000000e+04     2.972500000000000e+04     2.988700000000000e+04     2.984500000000000e+04     3.018200000000000e+04     3.018700000000000e+04     2.998900000000000e+04     3.016600000000000e+04     3.035900000000000e+04     3.051100000000000e+04     3.029900000000000e+04     2.980500000000000e+04     3.021700000000000e+04     2.980500000000000e+04
    3.187700000000000e+04     3.231900000000000e+04     3.218700000000000e+04     3.210300000000000e+04     3.224600000000000e+04     3.188600000000000e+04     3.236900000000000e+04     3.215400000000000e+04     3.258500000000000e+04     3.209900000000000e+04     3.225900000000000e+04     3.204600000000000e+04     3.235400000000000e+04     3.203100000000000e+04     3.218000000000000e+04     3.208200000000000e+04     3.221800000000000e+04     3.197700000000000e+04     3.225200000000000e+04     3.219300000000000e+04     3.226700000000000e+04     3.200800000000000e+04     3.215800000000000e+04     3.255000000000000e+04     3.226500000000000e+04     3.224600000000000e+04     3.216600000000000e+04     3.229400000000000e+04     3.214200000000000e+04     3.203200000000000e+04     3.205900000000000e+04     3.248800000000000e+04     3.230900000000000e+04     3.197100000000000e+04     3.242000000000000e+04     3.207600000000000e+04     3.247300000000000e+04     3.240900000000000e+04     3.212300000000000e+04     3.218800000000000e+04     3.189500000000000e+04     3.203000000000000e+04     3.216700000000000e+04     3.214600000000000e+04     3.197900000000000e+04     3.219300000000000e+04     3.191600000000000e+04     3.217500000000000e+04     3.233700000000000e+04     3.243100000000000e+04     3.237600000000000e+04     3.246100000000000e+04     3.239600000000000e+04     3.228800000000000e+04     3.224000000000000e+04     3.238400000000000e+04     3.280600000000000e+04     3.258100000000000e+04     3.249900000000000e+04     3.255300000000000e+04     3.253400000000000e+04     3.233300000000000e+04     3.237000000000000e+04     3.245700000000000e+04     3.217600000000000e+04     3.226600000000000e+04     3.267200000000000e+04     3.272100000000000e+04     3.236300000000000e+04     3.227800000000000e+04     3.255100000000000e+04     3.221700000000000e+04     3.257600000000000e+04     3.189100000000000e+04     3.243400000000000e+04     3.266300000000000e+04     3.210100000000000e+04     3.230200000000000e+04     3.271700000000000e+04     3.214900000000000e+04     3.290700000000000e+04     3.254100000000000e+04     3.247200000000000e+04     3.212300000000000e+04     3.291700000000000e+04     3.259100000000000e+04     3.250000000000000e+04     3.255300000000000e+04     3.271100000000000e+04     3.294200000000000e+04     3.280700000000000e+04     3.255300000000000e+04     3.301000000000000e+04     3.274100000000000e+04     3.321400000000000e+04     3.302600000000000e+04     3.269900000000000e+04     3.333700000000000e+04     3.305200000000000e+04     3.317500000000000e+04
    3.477300000000000e+04     3.526000000000000e+04     3.473900000000000e+04     3.490200000000000e+04     3.508700000000000e+04     3.476400000000000e+04     3.518500000000000e+04     3.498200000000000e+04     3.495100000000000e+04     3.513700000000000e+04     3.484000000000000e+04     3.489200000000000e+04     3.548100000000000e+04     3.507300000000000e+04     3.536900000000000e+04     3.494900000000000e+04     3.526400000000000e+04     3.517400000000000e+04     3.530700000000000e+04     3.508700000000000e+04     3.485700000000000e+04     3.503100000000000e+04     3.513100000000000e+04     3.488000000000000e+04     3.514600000000000e+04     3.516800000000000e+04     3.525700000000000e+04     3.484600000000000e+04     3.467400000000000e+04     3.504200000000000e+04     3.492000000000000e+04     3.515600000000000e+04     3.526900000000000e+04     3.490900000000000e+04     3.519200000000000e+04     3.509600000000000e+04     3.483300000000000e+04     3.505200000000000e+04     3.544500000000000e+04     3.501500000000000e+04     3.488300000000000e+04     3.482800000000000e+04     3.522400000000000e+04     3.525400000000000e+04     3.517800000000000e+04     3.494800000000000e+04     3.536500000000000e+04     3.505700000000000e+04     3.510100000000000e+04     3.520600000000000e+04     3.497500000000000e+04     3.493800000000000e+04     3.503400000000000e+04     3.512800000000000e+04     3.511200000000000e+04     3.494600000000000e+04     3.535900000000000e+04     3.504200000000000e+04     3.515300000000000e+04     3.520900000000000e+04     3.508300000000000e+04     3.521300000000000e+04     3.520500000000000e+04     3.530700000000000e+04     3.534300000000000e+04     3.520800000000000e+04     3.528900000000000e+04     3.538400000000000e+04     3.518300000000000e+04     3.539500000000000e+04     3.515600000000000e+04     3.517200000000000e+04     3.533600000000000e+04     3.553000000000000e+04     3.535800000000000e+04     3.560600000000000e+04     3.540600000000000e+04     3.540900000000000e+04     3.534300000000000e+04     3.540700000000000e+04     3.550300000000000e+04     3.527800000000000e+04     3.535200000000000e+04     3.525700000000000e+04     3.558000000000000e+04     3.578600000000000e+04     3.550800000000000e+04     3.550900000000000e+04     3.557700000000000e+04     3.578200000000000e+04     3.559100000000000e+04     3.556600000000000e+04     3.558400000000000e+04     3.573000000000000e+04     3.536100000000000e+04     3.544000000000000e+04     3.589700000000000e+04     3.585700000000000e+04     3.605000000000000e+04     3.568500000000000e+04
    3.764200000000000e+04     3.757400000000000e+04     3.800300000000000e+04     3.798600000000000e+04     3.813100000000000e+04     3.794700000000000e+04     3.782700000000000e+04     3.763700000000000e+04     3.802000000000000e+04     3.764000000000000e+04     3.814700000000000e+04     3.816500000000000e+04     3.818100000000000e+04     3.866100000000000e+04     3.812600000000000e+04     3.814200000000000e+04     3.786600000000000e+04     3.842500000000000e+04     3.763800000000000e+04     3.779600000000000e+04     3.776200000000000e+04     3.784100000000000e+04     3.784200000000000e+04     3.769400000000000e+04     3.803700000000000e+04     3.775700000000000e+04     3.780700000000000e+04     3.799600000000000e+04     3.794900000000000e+04     3.823900000000000e+04     3.808900000000000e+04     3.794200000000000e+04     3.814100000000000e+04     3.789400000000000e+04     3.773900000000000e+04     3.747900000000000e+04     3.819000000000000e+04     3.784000000000000e+04     3.780000000000000e+04     3.793000000000000e+04     3.770000000000000e+04     3.816900000000000e+04     3.847500000000000e+04     3.799600000000000e+04     3.751700000000000e+04     3.804700000000000e+04     3.787200000000000e+04     3.810600000000000e+04     3.801100000000000e+04     3.794800000000000e+04     3.792900000000000e+04     3.811700000000000e+04     3.831000000000000e+04     3.797100000000000e+04     3.813300000000000e+04     3.793800000000000e+04     3.760400000000000e+04     3.795400000000000e+04     3.789400000000000e+04     3.837500000000000e+04     3.804700000000000e+04     3.808000000000000e+04     3.803700000000000e+04     3.785400000000000e+04     3.787200000000000e+04     3.771700000000000e+04     3.798800000000000e+04     3.798800000000000e+04     3.823700000000000e+04     3.809500000000000e+04     3.837100000000000e+04     3.792100000000000e+04     3.817700000000000e+04     3.824900000000000e+04     3.833100000000000e+04     3.854800000000000e+04     3.837200000000000e+04     3.787500000000000e+04     3.846400000000000e+04     3.818800000000000e+04     3.824600000000000e+04     3.818600000000000e+04     3.844500000000000e+04     3.836900000000000e+04     3.851700000000000e+04     3.842900000000000e+04     3.857000000000000e+04     3.825700000000000e+04     3.824700000000000e+04     3.825800000000000e+04     3.846700000000000e+04     3.855700000000000e+04     3.848000000000000e+04     3.844900000000000e+04     3.845200000000000e+04     3.872500000000000e+04     3.881900000000000e+04     3.871300000000000e+04     3.882900000000000e+04     3.856500000000000e+04
    4.084800000000000e+04     4.066200000000000e+04     4.095100000000000e+04     4.076800000000000e+04     4.055700000000000e+04     4.070700000000000e+04     4.060800000000000e+04     4.112800000000000e+04     4.092300000000000e+04     4.085000000000000e+04     4.097200000000000e+04     4.085800000000000e+04     4.107400000000000e+04     4.080100000000000e+04     4.069600000000000e+04     4.087200000000000e+04     4.131900000000000e+04     4.117900000000000e+04     4.141800000000000e+04     4.085700000000000e+04     4.132400000000000e+04     4.119800000000000e+04     4.086400000000000e+04     4.102500000000000e+04     4.080500000000000e+04     4.129400000000000e+04     4.098200000000000e+04     4.063700000000000e+04     4.105100000000000e+04     4.092200000000000e+04     4.142100000000000e+04     4.064100000000000e+04     4.063800000000000e+04     4.091700000000000e+04     4.094500000000000e+04     4.103600000000000e+04     4.100500000000000e+04     4.107500000000000e+04     4.092400000000000e+04     4.071800000000000e+04     4.088900000000000e+04     4.095900000000000e+04     4.096600000000000e+04     4.050100000000000e+04     4.143700000000000e+04     4.070100000000000e+04     4.115300000000000e+04     4.134100000000000e+04     4.095900000000000e+04     4.122300000000000e+04     4.109300000000000e+04     4.127800000000000e+04     4.121400000000000e+04     4.113600000000000e+04     4.116100000000000e+04     4.112600000000000e+04     4.098300000000000e+04     4.102000000000000e+04     4.099700000000000e+04     4.090700000000000e+04     4.110700000000000e+04     4.130400000000000e+04     4.094600000000000e+04     4.096100000000000e+04     4.115200000000000e+04     4.078100000000000e+04     4.094600000000000e+04     4.132600000000000e+04     4.095000000000000e+04     4.116300000000000e+04     4.122900000000000e+04     4.119700000000000e+04     4.142300000000000e+04     4.118100000000000e+04     4.150800000000000e+04     4.108400000000000e+04     4.140800000000000e+04     4.132500000000000e+04     4.102000000000000e+04     4.146000000000000e+04     4.096300000000000e+04     4.094400000000000e+04     4.107800000000000e+04     4.147600000000000e+04     4.166100000000000e+04     4.147800000000000e+04     4.136800000000000e+04     4.151100000000000e+04     4.147800000000000e+04     4.155500000000000e+04     4.162300000000000e+04     4.159000000000000e+04     4.191800000000000e+04     4.210400000000000e+04     4.166600000000000e+04     4.199600000000000e+04     4.152300000000000e+04     4.159800000000000e+04     4.209400000000000e+04     4.164000000000000e+04
    4.400400000000000e+04     4.414900000000000e+04     4.374500000000000e+04     4.397600000000000e+04     4.406500000000000e+04     4.407800000000000e+04     4.374400000000000e+04     4.432000000000000e+04     4.413000000000000e+04     4.389800000000000e+04     4.391300000000000e+04     4.373400000000000e+04     4.435200000000000e+04     4.401900000000000e+04     4.400600000000000e+04     4.388100000000000e+04     4.361800000000000e+04     4.442300000000000e+04     4.434900000000000e+04     4.378900000000000e+04     4.395000000000000e+04     4.387800000000000e+04     4.403600000000000e+04     4.420600000000000e+04     4.405900000000000e+04     4.418200000000000e+04     4.377800000000000e+04     4.355300000000000e+04     4.414500000000000e+04     4.346600000000000e+04     4.362700000000000e+04     4.386600000000000e+04     4.391100000000000e+04     4.381700000000000e+04     4.418900000000000e+04     4.412700000000000e+04     4.388900000000000e+04     4.407000000000000e+04     4.444100000000000e+04     4.416900000000000e+04     4.411600000000000e+04     4.432300000000000e+04     4.450900000000000e+04     4.405600000000000e+04     4.393000000000000e+04     4.389400000000000e+04     4.381100000000000e+04     4.400800000000000e+04     4.402900000000000e+04     4.416100000000000e+04     4.422900000000000e+04     4.416800000000000e+04     4.409600000000000e+04     4.401200000000000e+04     4.401700000000000e+04     4.411500000000000e+04     4.420200000000000e+04     4.380200000000000e+04     4.410800000000000e+04     4.393000000000000e+04     4.407900000000000e+04     4.452000000000000e+04     4.432400000000000e+04     4.436800000000000e+04     4.455800000000000e+04     4.460800000000000e+04     4.429600000000000e+04     4.450100000000000e+04     4.435900000000000e+04     4.425400000000000e+04     4.411800000000000e+04     4.420800000000000e+04     4.419700000000000e+04     4.405500000000000e+04     4.420900000000000e+04     4.436400000000000e+04     4.428100000000000e+04     4.462100000000000e+04     4.443100000000000e+04     4.461400000000000e+04     4.411400000000000e+04     4.405600000000000e+04     4.451200000000000e+04     4.443900000000000e+04     4.486900000000000e+04     4.445100000000000e+04     4.436000000000000e+04     4.476700000000000e+04     4.483600000000000e+04     4.448500000000000e+04     4.454800000000000e+04     4.452300000000000e+04     4.477500000000000e+04     4.461900000000000e+04     4.477000000000000e+04     4.504600000000000e+04     4.452600000000000e+04     4.492200000000000e+04     4.466900000000000e+04     4.451900000000000e+04
    4.742800000000000e+04     4.730600000000000e+04     4.774000000000000e+04     4.727200000000000e+04     4.734600000000000e+04     4.749400000000000e+04     4.714500000000000e+04     4.752500000000000e+04     4.704300000000000e+04     4.721700000000000e+04     4.720000000000000e+04     4.721800000000000e+04     4.703900000000000e+04     4.673100000000000e+04     4.721400000000000e+04     4.713800000000000e+04     4.683300000000000e+04     4.683300000000000e+04     4.697700000000000e+04     4.752300000000000e+04     4.724000000000000e+04     4.758500000000000e+04     4.738300000000000e+04     4.670700000000000e+04     4.744800000000000e+04     4.732800000000000e+04     4.709800000000000e+04     4.719700000000000e+04     4.733200000000000e+04     4.744800000000000e+04     4.710500000000000e+04     4.687500000000000e+04     4.700200000000000e+04     4.747400000000000e+04     4.733900000000000e+04     4.715600000000000e+04     4.762600000000000e+04     4.753700000000000e+04     4.696500000000000e+04     4.741100000000000e+04     4.708100000000000e+04     4.718800000000000e+04     4.724800000000000e+04     4.702900000000000e+04     4.669000000000000e+04     4.748100000000000e+04     4.721700000000000e+04     4.707500000000000e+04     4.749200000000000e+04     4.793000000000000e+04     4.744800000000000e+04     4.743600000000000e+04     4.735700000000000e+04     4.681000000000000e+04     4.723800000000000e+04     4.761100000000000e+04     4.782400000000000e+04     4.718100000000000e+04     4.735100000000000e+04     4.737000000000000e+04     4.788500000000000e+04     4.762100000000000e+04     4.779400000000000e+04     4.790200000000000e+04     4.788700000000000e+04     4.771800000000000e+04     4.755500000000000e+04     4.773600000000000e+04     4.748000000000000e+04     4.733800000000000e+04     4.738400000000000e+04     4.707000000000000e+04     4.726500000000000e+04     4.760300000000000e+04     4.786400000000000e+04     4.778200000000000e+04     4.802900000000000e+04     4.778400000000000e+04     4.764900000000000e+04     4.741500000000000e+04     4.795400000000000e+04     4.758000000000000e+04     4.798600000000000e+04     4.805300000000000e+04     4.775600000000000e+04     4.801600000000000e+04     4.761100000000000e+04     4.807700000000000e+04     4.779000000000000e+04     4.751700000000000e+04     4.744700000000000e+04     4.798700000000000e+04     4.815200000000000e+04     4.797900000000000e+04     4.822000000000000e+04     4.788400000000000e+04     4.838200000000000e+04     4.776100000000000e+04     4.779900000000000e+04     4.808500000000000e+04
    5.064000000000000e+04     5.053900000000000e+04     4.981800000000000e+04     5.065500000000000e+04     5.049100000000000e+04     5.048300000000000e+04     5.065900000000000e+04     5.060200000000000e+04     5.067100000000000e+04     5.038500000000000e+04     5.033200000000000e+04     5.068300000000000e+04     5.042400000000000e+04     5.081500000000000e+04     5.047700000000000e+04     5.039500000000000e+04     5.075700000000000e+04     5.096400000000000e+04     5.067100000000000e+04     5.064400000000000e+04     5.055100000000000e+04     5.027200000000000e+04     5.055600000000000e+04     5.055600000000000e+04     5.077800000000000e+04     5.069300000000000e+04     5.049100000000000e+04     5.059400000000000e+04     5.063600000000000e+04     5.035800000000000e+04     5.008100000000000e+04     5.063400000000000e+04     5.059700000000000e+04     5.024500000000000e+04     5.110400000000000e+04     5.036800000000000e+04     5.064900000000000e+04     5.069800000000000e+04     5.084200000000000e+04     5.068300000000000e+04     5.055600000000000e+04     5.051000000000000e+04     5.077100000000000e+04     5.118600000000000e+04     5.052300000000000e+04     5.028100000000000e+04     5.109400000000000e+04     5.086700000000000e+04     5.075000000000000e+04     5.037800000000000e+04     5.085400000000000e+04     5.093100000000000e+04     5.067600000000000e+04     5.101800000000000e+04     5.076500000000000e+04     4.994400000000000e+04     5.070000000000000e+04     5.097600000000000e+04     5.085700000000000e+04     5.069400000000000e+04     5.084600000000000e+04     5.098200000000000e+04     5.047300000000000e+04     5.073400000000000e+04     5.087200000000000e+04     5.086900000000000e+04     5.074800000000000e+04     5.085100000000000e+04     5.080600000000000e+04     5.105400000000000e+04     5.092000000000000e+04     5.108500000000000e+04     5.055400000000000e+04     5.105100000000000e+04     5.135500000000000e+04     5.062000000000000e+04     5.119800000000000e+04     5.136200000000000e+04     5.088800000000000e+04     5.077300000000000e+04     5.139300000000000e+04     5.127700000000000e+04     5.130700000000000e+04     5.117900000000000e+04     5.141300000000000e+04     5.130900000000000e+04     5.133200000000000e+04     5.144300000000000e+04     5.126800000000000e+04     5.114100000000000e+04     5.115300000000000e+04     5.137000000000000e+04     5.161700000000000e+04     5.159500000000000e+04     5.174600000000000e+04     5.165600000000000e+04     5.152100000000000e+04     5.100800000000000e+04     5.120300000000000e+04     5.126400000000000e+04
