    0.00000    1.00000    2.00000    3.00000    4.00000    5.00000    6.00000    7.00000    8.00000    9.00000   10.00000   11.00000   12.00000   13.00000   14.00000   15.00000   16.00000   17.00000   18.00000   19.00000   20.00000   21.00000   22.00000   23.00000   24.00000   25.00000   26.00000   27.00000   28.00000   29.00000   30.00000
    0.00000    0.01000    0.02000    0.03000    0.04000    0.05000    0.06000    0.07000    0.08000    0.09000    0.10000    0.11000    0.12000    0.13000    0.14000    0.15000    0.16000    0.17000    0.18000    0.19000    0.20000    0.21000    0.22000    0.23000    0.24000    0.25000    0.26000    0.27000    0.28000    0.29000    0.30000    0.31000    0.32000    0.33000    0.34000    0.35000    0.36000    0.37000    0.38000    0.39000    0.40000    0.41000    0.42000    0.43000    0.44000    0.45000    0.46000    0.47000    0.48000    0.49000    0.50000    0.51000    0.52000    0.53000    0.54000    0.55000    0.56000    0.57000    0.58000    0.59000    0.60000    0.61000    0.62000    0.63000    0.64000    0.65000    0.66000    0.67000    0.68000    0.69000    0.70000    0.71000    0.72000    0.73000    0.74000    0.75000    0.76000    0.77000    0.78000    0.79000    0.80000    0.81000    0.82000    0.83000    0.84000    0.85000    0.86000    0.87000    0.88000    0.89000    0.90000    0.91000    0.92000    0.93000    0.94000    0.95000    0.96000    0.97000    0.98000    0.99000    1.00000
    1.900000000000000e+02     1.700000000000000e+02     2.200000000000000e+02     1.840000000000000e+02     1.700000000000000e+02     1.840000000000000e+02     1.960000000000000e+02     2.080000000000000e+02     1.920000000000000e+02     2.380000000000000e+02     2.300000000000000e+02     2.180000000000000e+02     1.660000000000000e+02     2.360000000000000e+02     1.760000000000000e+02     2.100000000000000e+02     1.740000000000000e+02     2.380000000000000e+02     1.960000000000000e+02     1.700000000000000e+02     1.840000000000000e+02     1.920000000000000e+02     1.400000000000000e+02     1.940000000000000e+02     1.520000000000000e+02     1.700000000000000e+02     2.360000000000000e+02     1.400000000000000e+02     1.920000000000000e+02     1.960000000000000e+02     2.300000000000000e+02     2.260000000000000e+02     1.660000000000000e+02     1.700000000000000e+02     2.060000000000000e+02     1.780000000000000e+02     1.720000000000000e+02     2.060000000000000e+02     1.540000000000000e+02     2.080000000000000e+02     2.120000000000000e+02     2.080000000000000e+02     2.000000000000000e+02     2.320000000000000e+02     1.740000000000000e+02     1.880000000000000e+02     2.320000000000000e+02     1.860000000000000e+02     1.980000000000000e+02     1.740000000000000e+02     2.200000000000000e+02     1.680000000000000e+02     2.020000000000000e+02     1.820000000000000e+02     1.960000000000000e+02     1.840000000000000e+02     2.120000000000000e+02     2.060000000000000e+02     2.040000000000000e+02     1.880000000000000e+02     1.940000000000000e+02     1.840000000000000e+02     2.080000000000000e+02     2.060000000000000e+02     1.540000000000000e+02     2.240000000000000e+02     1.980000000000000e+02     1.700000000000000e+02     2.000000000000000e+02     2.080000000000000e+02     2.180000000000000e+02     2.120000000000000e+02     1.860000000000000e+02     2.100000000000000e+02     2.440000000000000e+02     2.320000000000000e+02     2.160000000000000e+02     1.700000000000000e+02     2.060000000000000e+02     2.140000000000000e+02     2.120000000000000e+02     2.180000000000000e+02     2.500000000000000e+02     2.100000000000000e+02     2.080000000000000e+02     2.300000000000000e+02     1.840000000000000e+02     2.280000000000000e+02     2.200000000000000e+02     2.620000000000000e+02     2.480000000000000e+02     2.160000000000000e+02     2.520000000000000e+02     2.180000000000000e+02     2.240000000000000e+02     2.620000000000000e+02     2.700000000000000e+02     2.680000000000000e+02     3.180000000000000e+02     4.920000000000000e+02
    2.220000000000000e+02     2.700000000000000e+02     2.540000000000000e+02     2.740000000000000e+02     2.480000000000000e+02     2.300000000000000e+02     2.720000000000000e+02     3.000000000000000e+02     2.520000000000000e+02     2.740000000000000e+02     2.500000000000000e+02     2.060000000000000e+02     2.280000000000000e+02     2.400000000000000e+02     2.700000000000000e+02     2.620000000000000e+02     2.860000000000000e+02     2.640000000000000e+02     2.700000000000000e+02     2.400000000000000e+02     2.600000000000000e+02     2.520000000000000e+02     2.500000000000000e+02     2.360000000000000e+02     2.380000000000000e+02     2.460000000000000e+02     2.760000000000000e+02     2.840000000000000e+02     2.840000000000000e+02     2.560000000000000e+02     2.420000000000000e+02     2.560000000000000e+02     3.000000000000000e+02     2.320000000000000e+02     2.360000000000000e+02     2.340000000000000e+02     2.540000000000000e+02     2.520000000000000e+02     2.620000000000000e+02     2.180000000000000e+02     2.700000000000000e+02     2.740000000000000e+02     2.480000000000000e+02     2.520000000000000e+02     2.360000000000000e+02     2.880000000000000e+02     2.360000000000000e+02     2.440000000000000e+02     2.760000000000000e+02     2.500000000000000e+02     2.520000000000000e+02     2.780000000000000e+02     2.480000000000000e+02     2.580000000000000e+02     2.600000000000000e+02     2.560000000000000e+02     3.040000000000000e+02     2.360000000000000e+02     2.980000000000000e+02     2.300000000000000e+02     2.520000000000000e+02     2.540000000000000e+02     2.640000000000000e+02     2.260000000000000e+02     2.200000000000000e+02     2.780000000000000e+02     2.440000000000000e+02     2.920000000000000e+02     2.420000000000000e+02     2.960000000000000e+02     2.700000000000000e+02     3.280000000000000e+02     2.600000000000000e+02     2.800000000000000e+02     2.420000000000000e+02     2.900000000000000e+02     2.940000000000000e+02     2.820000000000000e+02     2.360000000000000e+02     2.740000000000000e+02     2.260000000000000e+02     2.680000000000000e+02     2.760000000000000e+02     2.160000000000000e+02     2.920000000000000e+02     2.300000000000000e+02     2.880000000000000e+02     2.820000000000000e+02     2.080000000000000e+02     2.460000000000000e+02     2.460000000000000e+02     2.460000000000000e+02     2.580000000000000e+02     2.860000000000000e+02     2.900000000000000e+02     2.640000000000000e+02     2.660000000000000e+02     3.140000000000000e+02     3.020000000000000e+02     3.180000000000000e+02
    4.200000000000000e+02     3.740000000000000e+02     3.680000000000000e+02     3.380000000000000e+02     3.840000000000000e+02     3.500000000000000e+02     3.500000000000000e+02     3.120000000000000e+02     3.780000000000000e+02     3.180000000000000e+02     3.480000000000000e+02     3.720000000000000e+02     4.000000000000000e+02     3.760000000000000e+02     3.220000000000000e+02     3.480000000000000e+02     3.260000000000000e+02     3.080000000000000e+02     3.380000000000000e+02     3.460000000000000e+02     3.060000000000000e+02     3.220000000000000e+02     3.380000000000000e+02     3.160000000000000e+02     3.300000000000000e+02     3.600000000000000e+02     3.920000000000000e+02     3.300000000000000e+02     3.880000000000000e+02     3.200000000000000e+02     3.660000000000000e+02     3.740000000000000e+02     3.940000000000000e+02     3.240000000000000e+02     3.840000000000000e+02     3.660000000000000e+02     3.760000000000000e+02     3.260000000000000e+02     3.760000000000000e+02     3.220000000000000e+02     2.740000000000000e+02     3.100000000000000e+02     3.420000000000000e+02     3.300000000000000e+02     3.160000000000000e+02     3.300000000000000e+02     3.520000000000000e+02     3.580000000000000e+02     2.960000000000000e+02     3.500000000000000e+02     3.160000000000000e+02     3.080000000000000e+02     3.360000000000000e+02     3.520000000000000e+02     3.500000000000000e+02     3.440000000000000e+02     3.440000000000000e+02     3.340000000000000e+02     3.260000000000000e+02     3.560000000000000e+02     3.520000000000000e+02     3.480000000000000e+02     3.680000000000000e+02     3.420000000000000e+02     3.820000000000000e+02     3.500000000000000e+02     3.620000000000000e+02     3.500000000000000e+02     3.480000000000000e+02     3.080000000000000e+02     3.440000000000000e+02     3.240000000000000e+02     3.320000000000000e+02     3.280000000000000e+02     3.260000000000000e+02     3.220000000000000e+02     3.340000000000000e+02     3.300000000000000e+02     3.480000000000000e+02     3.740000000000000e+02     3.860000000000000e+02     3.340000000000000e+02     3.280000000000000e+02     3.140000000000000e+02     3.440000000000000e+02     3.280000000000000e+02     3.220000000000000e+02     3.640000000000000e+02     3.640000000000000e+02     3.440000000000000e+02     3.260000000000000e+02     3.520000000000000e+02     3.260000000000000e+02     3.260000000000000e+02     3.320000000000000e+02     3.520000000000000e+02     4.020000000000000e+02     3.880000000000000e+02     3.560000000000000e+02     3.460000000000000e+02
    5.040000000000000e+02     4.740000000000000e+02     4.700000000000000e+02     4.480000000000000e+02     4.360000000000000e+02     4.600000000000000e+02     4.820000000000000e+02     4.320000000000000e+02     4.340000000000000e+02     4.340000000000000e+02     4.920000000000000e+02     4.760000000000000e+02     4.680000000000000e+02     4.820000000000000e+02     4.800000000000000e+02     4.380000000000000e+02     4.420000000000000e+02     4.860000000000000e+02     4.740000000000000e+02     4.440000000000000e+02     4.360000000000000e+02     4.640000000000000e+02     4.560000000000000e+02     4.580000000000000e+02     4.340000000000000e+02     4.180000000000000e+02     5.160000000000000e+02     4.660000000000000e+02     4.360000000000000e+02     4.840000000000000e+02     4.240000000000000e+02     4.120000000000000e+02     4.400000000000000e+02     4.700000000000000e+02     4.200000000000000e+02     4.000000000000000e+02     4.160000000000000e+02     4.460000000000000e+02     4.760000000000000e+02     4.640000000000000e+02     4.400000000000000e+02     3.900000000000000e+02     4.780000000000000e+02     4.400000000000000e+02     4.980000000000000e+02     3.940000000000000e+02     4.780000000000000e+02     4.700000000000000e+02     4.600000000000000e+02     4.320000000000000e+02     4.880000000000000e+02     4.360000000000000e+02     4.740000000000000e+02     4.700000000000000e+02     4.220000000000000e+02     4.440000000000000e+02     4.760000000000000e+02     4.640000000000000e+02     4.180000000000000e+02     4.580000000000000e+02     4.540000000000000e+02     3.900000000000000e+02     4.420000000000000e+02     4.060000000000000e+02     4.140000000000000e+02     4.840000000000000e+02     4.840000000000000e+02     4.360000000000000e+02     4.100000000000000e+02     4.620000000000000e+02     4.160000000000000e+02     4.900000000000000e+02     4.500000000000000e+02     4.500000000000000e+02     4.580000000000000e+02     5.160000000000000e+02     4.580000000000000e+02     4.660000000000000e+02     4.560000000000000e+02     4.740000000000000e+02     4.380000000000000e+02     5.260000000000000e+02     4.840000000000000e+02     4.460000000000000e+02     4.660000000000000e+02     4.460000000000000e+02     4.380000000000000e+02     5.100000000000000e+02     4.480000000000000e+02     4.140000000000000e+02     5.040000000000000e+02     5.240000000000000e+02     4.920000000000000e+02     4.740000000000000e+02     4.340000000000000e+02     4.680000000000000e+02     4.940000000000000e+02     4.500000000000000e+02     4.380000000000000e+02     4.680000000000000e+02
    5.120000000000000e+02     6.280000000000000e+02     6.280000000000000e+02     5.480000000000000e+02     5.960000000000000e+02     6.340000000000000e+02     6.020000000000000e+02     6.020000000000000e+02     6.080000000000000e+02     6.120000000000000e+02     5.880000000000000e+02     5.940000000000000e+02     5.660000000000000e+02     6.120000000000000e+02     5.900000000000000e+02     6.100000000000000e+02     5.720000000000000e+02     6.720000000000000e+02     5.740000000000000e+02     5.760000000000000e+02     6.300000000000000e+02     6.240000000000000e+02     5.920000000000000e+02     6.340000000000000e+02     6.260000000000000e+02     6.340000000000000e+02     6.160000000000000e+02     5.700000000000000e+02     5.760000000000000e+02     6.580000000000000e+02     6.780000000000000e+02     5.660000000000000e+02     6.000000000000000e+02     5.640000000000000e+02     6.240000000000000e+02     6.180000000000000e+02     5.100000000000000e+02     6.460000000000000e+02     5.740000000000000e+02     5.880000000000000e+02     6.040000000000000e+02     5.780000000000000e+02     5.580000000000000e+02     5.740000000000000e+02     5.040000000000000e+02     5.360000000000000e+02     6.080000000000000e+02     5.240000000000000e+02     5.820000000000000e+02     5.820000000000000e+02     5.840000000000000e+02     5.540000000000000e+02     5.800000000000000e+02     5.800000000000000e+02     5.780000000000000e+02     5.980000000000000e+02     6.320000000000000e+02     5.860000000000000e+02     5.460000000000000e+02     5.540000000000000e+02     5.300000000000000e+02     5.580000000000000e+02     6.740000000000000e+02     6.020000000000000e+02     6.000000000000000e+02     5.940000000000000e+02     5.740000000000000e+02     5.680000000000000e+02     5.800000000000000e+02     5.800000000000000e+02     6.000000000000000e+02     5.700000000000000e+02     5.800000000000000e+02     5.760000000000000e+02     5.760000000000000e+02     5.640000000000000e+02     6.360000000000000e+02     6.160000000000000e+02     5.640000000000000e+02     6.060000000000000e+02     5.940000000000000e+02     6.340000000000000e+02     5.900000000000000e+02     5.660000000000000e+02     5.540000000000000e+02     6.440000000000000e+02     6.320000000000000e+02     6.180000000000000e+02     5.820000000000000e+02     6.120000000000000e+02     6.380000000000000e+02     5.940000000000000e+02     5.660000000000000e+02     5.580000000000000e+02     6.320000000000000e+02     5.880000000000000e+02     4.940000000000000e+02     5.880000000000000e+02     6.180000000000000e+02     6.080000000000000e+02
    7.800000000000000e+02     7.000000000000000e+02     8.140000000000000e+02     7.200000000000000e+02     7.660000000000000e+02     8.220000000000000e+02     7.820000000000000e+02     7.080000000000000e+02     7.240000000000000e+02     7.780000000000000e+02     7.500000000000000e+02     7.920000000000000e+02     7.060000000000000e+02     7.660000000000000e+02     8.080000000000000e+02     7.220000000000000e+02     7.480000000000000e+02     7.920000000000000e+02     7.660000000000000e+02     6.700000000000000e+02     7.900000000000000e+02     7.760000000000000e+02     7.680000000000000e+02     7.820000000000000e+02     7.340000000000000e+02     7.740000000000000e+02     7.920000000000000e+02     7.200000000000000e+02     7.780000000000000e+02     7.180000000000000e+02     7.980000000000000e+02     7.160000000000000e+02     7.120000000000000e+02     7.720000000000000e+02     7.480000000000000e+02     7.320000000000000e+02     7.200000000000000e+02     7.940000000000000e+02     8.300000000000000e+02     7.880000000000000e+02     7.400000000000000e+02     6.620000000000000e+02     7.700000000000000e+02     7.200000000000000e+02     7.840000000000000e+02     7.560000000000000e+02     7.980000000000000e+02     7.440000000000000e+02     7.900000000000000e+02     7.440000000000000e+02     7.220000000000000e+02     6.420000000000000e+02     7.220000000000000e+02     7.120000000000000e+02     7.420000000000000e+02     7.760000000000000e+02     7.960000000000000e+02     8.220000000000000e+02     6.960000000000000e+02     6.640000000000000e+02     7.240000000000000e+02     7.540000000000000e+02     7.080000000000000e+02     7.380000000000000e+02     7.940000000000000e+02     6.660000000000000e+02     7.820000000000000e+02     7.220000000000000e+02     7.360000000000000e+02     7.380000000000000e+02     8.020000000000000e+02     7.780000000000000e+02     7.300000000000000e+02     7.700000000000000e+02     7.760000000000000e+02     7.900000000000000e+02     6.880000000000000e+02     7.080000000000000e+02     7.560000000000000e+02     7.700000000000000e+02     7.340000000000000e+02     7.720000000000000e+02     7.900000000000000e+02     7.560000000000000e+02     8.440000000000000e+02     6.980000000000000e+02     8.100000000000000e+02     8.140000000000000e+02     7.000000000000000e+02     8.140000000000000e+02     7.240000000000000e+02     7.240000000000000e+02     7.320000000000000e+02     7.460000000000000e+02     7.840000000000000e+02     6.580000000000000e+02     7.220000000000000e+02     7.920000000000000e+02     7.580000000000000e+02     7.400000000000000e+02
    9.440000000000000e+02     9.220000000000000e+02     9.480000000000000e+02     9.820000000000000e+02     9.520000000000000e+02     9.260000000000000e+02     9.520000000000000e+02     8.580000000000000e+02     9.840000000000000e+02     8.820000000000000e+02     8.880000000000000e+02     8.540000000000000e+02     1.030000000000000e+03     1.004000000000000e+03     9.100000000000000e+02     9.600000000000000e+02     9.080000000000000e+02     8.940000000000000e+02     9.400000000000000e+02     9.980000000000000e+02     9.080000000000000e+02     9.320000000000000e+02     9.680000000000000e+02     1.030000000000000e+03     9.640000000000000e+02     8.520000000000000e+02     8.780000000000000e+02     8.760000000000000e+02     9.560000000000000e+02     9.460000000000000e+02     9.600000000000000e+02     8.520000000000000e+02     8.680000000000000e+02     9.180000000000000e+02     9.140000000000000e+02     9.140000000000000e+02     9.460000000000000e+02     9.380000000000000e+02     8.900000000000000e+02     9.420000000000000e+02     8.960000000000000e+02     8.620000000000000e+02     8.660000000000000e+02     9.260000000000000e+02     9.500000000000000e+02     8.920000000000000e+02     8.360000000000000e+02     9.180000000000000e+02     8.260000000000000e+02     8.420000000000000e+02     8.900000000000000e+02     8.820000000000000e+02     9.360000000000000e+02     9.800000000000000e+02     8.780000000000000e+02     8.700000000000000e+02     9.360000000000000e+02     1.010000000000000e+03     9.760000000000000e+02     8.440000000000000e+02     9.280000000000000e+02     9.520000000000000e+02     1.034000000000000e+03     1.006000000000000e+03     9.540000000000000e+02     9.020000000000000e+02     9.680000000000000e+02     8.340000000000000e+02     8.700000000000000e+02     9.220000000000000e+02     9.480000000000000e+02     9.760000000000000e+02     9.440000000000000e+02     9.460000000000000e+02     9.780000000000000e+02     8.640000000000000e+02     9.980000000000000e+02     9.080000000000000e+02     9.480000000000000e+02     9.360000000000000e+02     9.520000000000000e+02     1.034000000000000e+03     8.700000000000000e+02     1.012000000000000e+03     9.300000000000000e+02     9.520000000000000e+02     9.580000000000000e+02     9.720000000000000e+02     9.420000000000000e+02     8.940000000000000e+02     9.060000000000000e+02     9.180000000000000e+02     9.540000000000000e+02     9.140000000000000e+02     8.900000000000000e+02     8.260000000000000e+02     8.840000000000000e+02     8.660000000000000e+02     9.200000000000000e+02     8.960000000000000e+02
    1.162000000000000e+03     1.100000000000000e+03     1.186000000000000e+03     1.078000000000000e+03     1.178000000000000e+03     1.022000000000000e+03     1.104000000000000e+03     1.080000000000000e+03     1.116000000000000e+03     1.084000000000000e+03     1.126000000000000e+03     1.132000000000000e+03     1.264000000000000e+03     1.106000000000000e+03     1.198000000000000e+03     1.276000000000000e+03     1.110000000000000e+03     1.172000000000000e+03     1.058000000000000e+03     1.152000000000000e+03     1.170000000000000e+03     1.180000000000000e+03     1.168000000000000e+03     1.244000000000000e+03     1.150000000000000e+03     1.178000000000000e+03     1.066000000000000e+03     1.138000000000000e+03     1.090000000000000e+03     1.148000000000000e+03     1.066000000000000e+03     1.146000000000000e+03     1.106000000000000e+03     1.164000000000000e+03     1.118000000000000e+03     1.062000000000000e+03     1.166000000000000e+03     1.134000000000000e+03     1.072000000000000e+03     1.040000000000000e+03     1.114000000000000e+03     1.144000000000000e+03     1.126000000000000e+03     1.132000000000000e+03     1.068000000000000e+03     1.040000000000000e+03     1.154000000000000e+03     1.146000000000000e+03     1.102000000000000e+03     1.118000000000000e+03     1.086000000000000e+03     1.136000000000000e+03     1.076000000000000e+03     1.136000000000000e+03     1.078000000000000e+03     1.098000000000000e+03     1.132000000000000e+03     1.134000000000000e+03     1.106000000000000e+03     1.042000000000000e+03     1.114000000000000e+03     1.110000000000000e+03     1.114000000000000e+03     1.170000000000000e+03     1.026000000000000e+03     1.088000000000000e+03     1.206000000000000e+03     1.114000000000000e+03     1.134000000000000e+03     1.120000000000000e+03     1.146000000000000e+03     1.114000000000000e+03     1.054000000000000e+03     1.110000000000000e+03     1.068000000000000e+03     1.062000000000000e+03     1.056000000000000e+03     1.102000000000000e+03     1.078000000000000e+03     1.188000000000000e+03     1.170000000000000e+03     1.070000000000000e+03     1.106000000000000e+03     1.132000000000000e+03     1.138000000000000e+03     1.124000000000000e+03     1.230000000000000e+03     1.178000000000000e+03     1.184000000000000e+03     1.116000000000000e+03     1.184000000000000e+03     1.102000000000000e+03     1.082000000000000e+03     1.054000000000000e+03     1.162000000000000e+03     1.076000000000000e+03     1.160000000000000e+03     1.060000000000000e+03     1.036000000000000e+03     1.168000000000000e+03
    1.314000000000000e+03     1.336000000000000e+03     1.394000000000000e+03     1.282000000000000e+03     1.340000000000000e+03     1.412000000000000e+03     1.302000000000000e+03     1.402000000000000e+03     1.354000000000000e+03     1.308000000000000e+03     1.368000000000000e+03     1.392000000000000e+03     1.322000000000000e+03     1.324000000000000e+03     1.364000000000000e+03     1.300000000000000e+03     1.314000000000000e+03     1.372000000000000e+03     1.400000000000000e+03     1.336000000000000e+03     1.324000000000000e+03     1.414000000000000e+03     1.298000000000000e+03     1.352000000000000e+03     1.328000000000000e+03     1.348000000000000e+03     1.352000000000000e+03     1.460000000000000e+03     1.320000000000000e+03     1.368000000000000e+03     1.364000000000000e+03     1.368000000000000e+03     1.274000000000000e+03     1.374000000000000e+03     1.292000000000000e+03     1.310000000000000e+03     1.428000000000000e+03     1.262000000000000e+03     1.244000000000000e+03     1.284000000000000e+03     1.292000000000000e+03     1.318000000000000e+03     1.362000000000000e+03     1.276000000000000e+03     1.392000000000000e+03     1.406000000000000e+03     1.332000000000000e+03     1.330000000000000e+03     1.440000000000000e+03     1.338000000000000e+03     1.348000000000000e+03     1.280000000000000e+03     1.284000000000000e+03     1.396000000000000e+03     1.262000000000000e+03     1.350000000000000e+03     1.312000000000000e+03     1.298000000000000e+03     1.300000000000000e+03     1.344000000000000e+03     1.342000000000000e+03     1.286000000000000e+03     1.268000000000000e+03     1.324000000000000e+03     1.378000000000000e+03     1.342000000000000e+03     1.212000000000000e+03     1.366000000000000e+03     1.238000000000000e+03     1.332000000000000e+03     1.316000000000000e+03     1.336000000000000e+03     1.358000000000000e+03     1.274000000000000e+03     1.246000000000000e+03     1.310000000000000e+03     1.274000000000000e+03     1.302000000000000e+03     1.324000000000000e+03     1.200000000000000e+03     1.290000000000000e+03     1.370000000000000e+03     1.272000000000000e+03     1.320000000000000e+03     1.366000000000000e+03     1.344000000000000e+03     1.256000000000000e+03     1.352000000000000e+03     1.328000000000000e+03     1.394000000000000e+03     1.290000000000000e+03     1.372000000000000e+03     1.358000000000000e+03     1.360000000000000e+03     1.294000000000000e+03     1.292000000000000e+03     1.370000000000000e+03     1.348000000000000e+03     1.298000000000000e+03     1.318000000000000e+03
    1.532000000000000e+03     1.580000000000000e+03     1.572000000000000e+03     1.544000000000000e+03     1.648000000000000e+03     1.612000000000000e+03     1.544000000000000e+03     1.558000000000000e+03     1.644000000000000e+03     1.492000000000000e+03     1.538000000000000e+03     1.532000000000000e+03     1.562000000000000e+03     1.594000000000000e+03     1.584000000000000e+03     1.608000000000000e+03     1.594000000000000e+03     1.568000000000000e+03     1.474000000000000e+03     1.522000000000000e+03     1.572000000000000e+03     1.540000000000000e+03     1.498000000000000e+03     1.596000000000000e+03     1.628000000000000e+03     1.624000000000000e+03     1.672000000000000e+03     1.594000000000000e+03     1.542000000000000e+03     1.608000000000000e+03     1.574000000000000e+03     1.602000000000000e+03     1.656000000000000e+03     1.420000000000000e+03     1.464000000000000e+03     1.548000000000000e+03     1.488000000000000e+03     1.558000000000000e+03     1.488000000000000e+03     1.468000000000000e+03     1.560000000000000e+03     1.496000000000000e+03     1.580000000000000e+03     1.584000000000000e+03     1.572000000000000e+03     1.512000000000000e+03     1.554000000000000e+03     1.632000000000000e+03     1.478000000000000e+03     1.524000000000000e+03     1.576000000000000e+03     1.538000000000000e+03     1.520000000000000e+03     1.502000000000000e+03     1.482000000000000e+03     1.486000000000000e+03     1.618000000000000e+03     1.536000000000000e+03     1.492000000000000e+03     1.552000000000000e+03     1.596000000000000e+03     1.556000000000000e+03     1.524000000000000e+03     1.546000000000000e+03     1.634000000000000e+03     1.624000000000000e+03     1.580000000000000e+03     1.586000000000000e+03     1.576000000000000e+03     1.520000000000000e+03     1.670000000000000e+03     1.494000000000000e+03     1.534000000000000e+03     1.642000000000000e+03     1.520000000000000e+03     1.648000000000000e+03     1.480000000000000e+03     1.412000000000000e+03     1.570000000000000e+03     1.578000000000000e+03     1.502000000000000e+03     1.542000000000000e+03     1.426000000000000e+03     1.362000000000000e+03     1.608000000000000e+03     1.604000000000000e+03     1.578000000000000e+03     1.636000000000000e+03     1.496000000000000e+03     1.646000000000000e+03     1.660000000000000e+03     1.574000000000000e+03     1.492000000000000e+03     1.424000000000000e+03     1.550000000000000e+03     1.588000000000000e+03     1.568000000000000e+03     1.426000000000000e+03     1.482000000000000e+03     1.462000000000000e+03
    1.846000000000000e+03     1.852000000000000e+03     1.844000000000000e+03     1.870000000000000e+03     1.794000000000000e+03     1.848000000000000e+03     1.848000000000000e+03     1.900000000000000e+03     1.730000000000000e+03     1.880000000000000e+03     1.826000000000000e+03     1.814000000000000e+03     1.884000000000000e+03     1.928000000000000e+03     1.802000000000000e+03     1.816000000000000e+03     1.744000000000000e+03     1.818000000000000e+03     1.808000000000000e+03     1.762000000000000e+03     1.702000000000000e+03     1.876000000000000e+03     1.816000000000000e+03     1.932000000000000e+03     1.792000000000000e+03     1.792000000000000e+03     1.800000000000000e+03     1.822000000000000e+03     1.842000000000000e+03     1.786000000000000e+03     1.784000000000000e+03     1.772000000000000e+03     1.772000000000000e+03     1.732000000000000e+03     1.888000000000000e+03     1.836000000000000e+03     1.828000000000000e+03     1.776000000000000e+03     1.738000000000000e+03     1.798000000000000e+03     1.870000000000000e+03     1.810000000000000e+03     1.770000000000000e+03     1.816000000000000e+03     1.726000000000000e+03     1.804000000000000e+03     1.742000000000000e+03     1.730000000000000e+03     1.818000000000000e+03     1.766000000000000e+03     1.796000000000000e+03     1.818000000000000e+03     1.758000000000000e+03     1.914000000000000e+03     1.706000000000000e+03     1.822000000000000e+03     1.860000000000000e+03     1.760000000000000e+03     1.834000000000000e+03     1.884000000000000e+03     1.790000000000000e+03     1.794000000000000e+03     1.692000000000000e+03     1.864000000000000e+03     1.794000000000000e+03     1.790000000000000e+03     1.756000000000000e+03     1.806000000000000e+03     1.810000000000000e+03     1.838000000000000e+03     1.852000000000000e+03     1.822000000000000e+03     1.886000000000000e+03     1.916000000000000e+03     1.812000000000000e+03     1.678000000000000e+03     1.778000000000000e+03     1.860000000000000e+03     1.858000000000000e+03     1.816000000000000e+03     1.858000000000000e+03     1.730000000000000e+03     1.748000000000000e+03     1.788000000000000e+03     1.788000000000000e+03     1.904000000000000e+03     1.828000000000000e+03     1.788000000000000e+03     1.684000000000000e+03     1.826000000000000e+03     1.728000000000000e+03     1.690000000000000e+03     1.840000000000000e+03     1.884000000000000e+03     1.778000000000000e+03     1.820000000000000e+03     1.722000000000000e+03     1.766000000000000e+03     1.720000000000000e+03     1.808000000000000e+03
    2.016000000000000e+03     2.158000000000000e+03     2.098000000000000e+03     2.228000000000000e+03     1.942000000000000e+03     2.132000000000000e+03     2.072000000000000e+03     2.154000000000000e+03     2.100000000000000e+03     2.112000000000000e+03     2.062000000000000e+03     2.128000000000000e+03     2.196000000000000e+03     1.994000000000000e+03     2.158000000000000e+03     1.998000000000000e+03     2.142000000000000e+03     1.976000000000000e+03     1.998000000000000e+03     2.122000000000000e+03     2.088000000000000e+03     1.956000000000000e+03     1.990000000000000e+03     2.074000000000000e+03     2.056000000000000e+03     2.096000000000000e+03     2.148000000000000e+03     2.066000000000000e+03     2.128000000000000e+03     2.072000000000000e+03     1.938000000000000e+03     2.110000000000000e+03     2.100000000000000e+03     1.998000000000000e+03     2.044000000000000e+03     2.004000000000000e+03     2.086000000000000e+03     1.952000000000000e+03     2.050000000000000e+03     2.168000000000000e+03     2.102000000000000e+03     2.052000000000000e+03     2.080000000000000e+03     2.034000000000000e+03     2.014000000000000e+03     2.110000000000000e+03     2.076000000000000e+03     2.020000000000000e+03     1.978000000000000e+03     2.020000000000000e+03     2.000000000000000e+03     2.076000000000000e+03     2.036000000000000e+03     2.192000000000000e+03     1.960000000000000e+03     2.128000000000000e+03     2.082000000000000e+03     1.992000000000000e+03     2.104000000000000e+03     2.086000000000000e+03     2.096000000000000e+03     2.064000000000000e+03     1.986000000000000e+03     2.080000000000000e+03     2.048000000000000e+03     2.034000000000000e+03     2.134000000000000e+03     2.030000000000000e+03     2.046000000000000e+03     2.114000000000000e+03     1.994000000000000e+03     2.006000000000000e+03     2.140000000000000e+03     2.090000000000000e+03     2.014000000000000e+03     2.046000000000000e+03     2.038000000000000e+03     2.022000000000000e+03     1.982000000000000e+03     2.070000000000000e+03     2.234000000000000e+03     2.026000000000000e+03     2.096000000000000e+03     2.050000000000000e+03     1.940000000000000e+03     2.144000000000000e+03     2.096000000000000e+03     2.152000000000000e+03     2.160000000000000e+03     2.128000000000000e+03     2.016000000000000e+03     2.018000000000000e+03     2.080000000000000e+03     1.960000000000000e+03     2.076000000000000e+03     2.034000000000000e+03     2.068000000000000e+03     1.982000000000000e+03     2.046000000000000e+03     2.110000000000000e+03
    2.318000000000000e+03     2.416000000000000e+03     2.308000000000000e+03     2.402000000000000e+03     2.430000000000000e+03     2.344000000000000e+03     2.230000000000000e+03     2.358000000000000e+03     2.314000000000000e+03     2.262000000000000e+03     2.242000000000000e+03     2.338000000000000e+03     2.326000000000000e+03     2.346000000000000e+03     2.328000000000000e+03     2.356000000000000e+03     2.308000000000000e+03     2.352000000000000e+03     2.268000000000000e+03     2.404000000000000e+03     2.366000000000000e+03     2.278000000000000e+03     2.264000000000000e+03     2.310000000000000e+03     2.364000000000000e+03     2.376000000000000e+03     2.386000000000000e+03     2.362000000000000e+03     2.468000000000000e+03     2.306000000000000e+03     2.470000000000000e+03     2.376000000000000e+03     2.350000000000000e+03     2.454000000000000e+03     2.378000000000000e+03     2.322000000000000e+03     2.176000000000000e+03     2.340000000000000e+03     2.294000000000000e+03     2.332000000000000e+03     2.308000000000000e+03     2.496000000000000e+03     2.500000000000000e+03     2.352000000000000e+03     2.298000000000000e+03     2.414000000000000e+03     2.390000000000000e+03     2.324000000000000e+03     2.320000000000000e+03     2.412000000000000e+03     2.298000000000000e+03     2.422000000000000e+03     2.360000000000000e+03     2.368000000000000e+03     2.380000000000000e+03     2.304000000000000e+03     2.400000000000000e+03     2.210000000000000e+03     2.316000000000000e+03     2.290000000000000e+03     2.268000000000000e+03     2.408000000000000e+03     2.216000000000000e+03     2.218000000000000e+03     2.264000000000000e+03     2.292000000000000e+03     2.264000000000000e+03     2.364000000000000e+03     2.310000000000000e+03     2.386000000000000e+03     2.414000000000000e+03     2.302000000000000e+03     2.322000000000000e+03     2.388000000000000e+03     2.312000000000000e+03     2.270000000000000e+03     2.232000000000000e+03     2.392000000000000e+03     2.374000000000000e+03     2.344000000000000e+03     2.320000000000000e+03     2.384000000000000e+03     2.356000000000000e+03     2.354000000000000e+03     2.400000000000000e+03     2.148000000000000e+03     2.344000000000000e+03     2.258000000000000e+03     2.462000000000000e+03     2.284000000000000e+03     2.404000000000000e+03     2.212000000000000e+03     2.342000000000000e+03     2.436000000000000e+03     2.342000000000000e+03     2.452000000000000e+03     2.404000000000000e+03     2.208000000000000e+03     2.460000000000000e+03     2.308000000000000e+03
    2.594000000000000e+03     2.600000000000000e+03     2.744000000000000e+03     2.726000000000000e+03     2.686000000000000e+03     2.486000000000000e+03     2.636000000000000e+03     2.684000000000000e+03     2.604000000000000e+03     2.652000000000000e+03     2.680000000000000e+03     2.594000000000000e+03     2.602000000000000e+03     2.714000000000000e+03     2.636000000000000e+03     2.696000000000000e+03     2.726000000000000e+03     2.590000000000000e+03     2.508000000000000e+03     2.530000000000000e+03     2.664000000000000e+03     2.764000000000000e+03     2.598000000000000e+03     2.796000000000000e+03     2.674000000000000e+03     2.644000000000000e+03     2.596000000000000e+03     2.622000000000000e+03     2.802000000000000e+03     2.594000000000000e+03     2.656000000000000e+03     2.642000000000000e+03     2.594000000000000e+03     2.592000000000000e+03     2.616000000000000e+03     2.642000000000000e+03     2.706000000000000e+03     2.644000000000000e+03     2.732000000000000e+03     2.694000000000000e+03     2.618000000000000e+03     2.702000000000000e+03     2.614000000000000e+03     2.548000000000000e+03     2.624000000000000e+03     2.742000000000000e+03     2.516000000000000e+03     2.530000000000000e+03     2.588000000000000e+03     2.564000000000000e+03     2.648000000000000e+03     2.726000000000000e+03     2.552000000000000e+03     2.712000000000000e+03     2.588000000000000e+03     2.722000000000000e+03     2.690000000000000e+03     2.582000000000000e+03     2.534000000000000e+03     2.564000000000000e+03     2.536000000000000e+03     2.706000000000000e+03     2.646000000000000e+03     2.572000000000000e+03     2.566000000000000e+03     2.434000000000000e+03     2.638000000000000e+03     2.592000000000000e+03     2.668000000000000e+03     2.510000000000000e+03     2.618000000000000e+03     2.594000000000000e+03     2.778000000000000e+03     2.522000000000000e+03     2.672000000000000e+03     2.532000000000000e+03     2.520000000000000e+03     2.686000000000000e+03     2.726000000000000e+03     2.782000000000000e+03     2.744000000000000e+03     2.800000000000000e+03     2.728000000000000e+03     2.628000000000000e+03     2.772000000000000e+03     2.782000000000000e+03     2.802000000000000e+03     2.642000000000000e+03     2.658000000000000e+03     2.566000000000000e+03     2.456000000000000e+03     2.686000000000000e+03     2.580000000000000e+03     2.476000000000000e+03     2.592000000000000e+03     2.512000000000000e+03     2.508000000000000e+03     2.780000000000000e+03     2.546000000000000e+03     2.640000000000000e+03
    3.106000000000000e+03     2.902000000000000e+03     3.038000000000000e+03     3.024000000000000e+03     3.110000000000000e+03     2.880000000000000e+03     3.106000000000000e+03     3.088000000000000e+03     3.102000000000000e+03     2.918000000000000e+03     2.870000000000000e+03     3.020000000000000e+03     3.042000000000000e+03     2.878000000000000e+03     2.870000000000000e+03     2.992000000000000e+03     2.834000000000000e+03     2.992000000000000e+03     2.920000000000000e+03     2.888000000000000e+03     3.080000000000000e+03     3.078000000000000e+03     2.996000000000000e+03     2.916000000000000e+03     3.060000000000000e+03     2.808000000000000e+03     2.994000000000000e+03     3.070000000000000e+03     3.088000000000000e+03     2.982000000000000e+03     2.950000000000000e+03     2.894000000000000e+03     2.994000000000000e+03     2.966000000000000e+03     2.796000000000000e+03     2.880000000000000e+03     2.910000000000000e+03     2.910000000000000e+03     3.040000000000000e+03     2.916000000000000e+03     2.996000000000000e+03     3.018000000000000e+03     2.906000000000000e+03     3.086000000000000e+03     2.862000000000000e+03     3.196000000000000e+03     2.832000000000000e+03     3.076000000000000e+03     2.938000000000000e+03     3.064000000000000e+03     3.056000000000000e+03     3.052000000000000e+03     3.036000000000000e+03     2.898000000000000e+03     3.050000000000000e+03     2.804000000000000e+03     2.880000000000000e+03     2.970000000000000e+03     2.986000000000000e+03     2.832000000000000e+03     2.882000000000000e+03     2.876000000000000e+03     2.942000000000000e+03     3.044000000000000e+03     2.752000000000000e+03     2.976000000000000e+03     2.924000000000000e+03     2.992000000000000e+03     2.956000000000000e+03     3.010000000000000e+03     3.088000000000000e+03     2.810000000000000e+03     3.062000000000000e+03     2.886000000000000e+03     3.104000000000000e+03     2.844000000000000e+03     2.798000000000000e+03     2.910000000000000e+03     2.980000000000000e+03     2.984000000000000e+03     3.050000000000000e+03     2.994000000000000e+03     3.016000000000000e+03     3.064000000000000e+03     2.946000000000000e+03     2.942000000000000e+03     3.100000000000000e+03     2.908000000000000e+03     3.032000000000000e+03     2.968000000000000e+03     2.886000000000000e+03     2.962000000000000e+03     2.994000000000000e+03     2.972000000000000e+03     3.004000000000000e+03     2.864000000000000e+03     2.946000000000000e+03     2.956000000000000e+03     2.816000000000000e+03     2.782000000000000e+03
    3.448000000000000e+03     3.280000000000000e+03     3.460000000000000e+03     3.398000000000000e+03     3.474000000000000e+03     3.386000000000000e+03     3.308000000000000e+03     3.266000000000000e+03     3.348000000000000e+03     3.352000000000000e+03     3.296000000000000e+03     3.364000000000000e+03     3.374000000000000e+03     3.478000000000000e+03     3.264000000000000e+03     3.390000000000000e+03     3.308000000000000e+03     3.394000000000000e+03     3.368000000000000e+03     3.368000000000000e+03     3.256000000000000e+03     3.228000000000000e+03     3.366000000000000e+03     3.526000000000000e+03     3.298000000000000e+03     3.212000000000000e+03     3.338000000000000e+03     3.462000000000000e+03     3.336000000000000e+03     3.338000000000000e+03     3.452000000000000e+03     3.410000000000000e+03     3.272000000000000e+03     3.314000000000000e+03     3.306000000000000e+03     3.434000000000000e+03     3.468000000000000e+03     3.372000000000000e+03     3.402000000000000e+03     3.500000000000000e+03     3.360000000000000e+03     3.476000000000000e+03     3.338000000000000e+03     3.262000000000000e+03     3.506000000000000e+03     3.320000000000000e+03     3.284000000000000e+03     3.432000000000000e+03     3.298000000000000e+03     3.356000000000000e+03     3.250000000000000e+03     3.284000000000000e+03     3.446000000000000e+03     3.332000000000000e+03     3.298000000000000e+03     3.322000000000000e+03     3.298000000000000e+03     3.326000000000000e+03     3.298000000000000e+03     3.158000000000000e+03     3.266000000000000e+03     3.500000000000000e+03     3.328000000000000e+03     3.180000000000000e+03     3.276000000000000e+03     3.250000000000000e+03     3.256000000000000e+03     3.240000000000000e+03     3.138000000000000e+03     3.288000000000000e+03     3.236000000000000e+03     3.384000000000000e+03     3.340000000000000e+03     3.212000000000000e+03     3.326000000000000e+03     3.258000000000000e+03     3.258000000000000e+03     3.336000000000000e+03     3.408000000000000e+03     3.236000000000000e+03     3.328000000000000e+03     3.344000000000000e+03     3.290000000000000e+03     3.450000000000000e+03     3.288000000000000e+03     3.312000000000000e+03     3.244000000000000e+03     3.116000000000000e+03     3.142000000000000e+03     3.342000000000000e+03     3.302000000000000e+03     3.308000000000000e+03     3.160000000000000e+03     3.086000000000000e+03     3.110000000000000e+03     3.110000000000000e+03     3.294000000000000e+03     3.260000000000000e+03     3.268000000000000e+03     3.468000000000000e+03
    3.664000000000000e+03     3.700000000000000e+03     3.782000000000000e+03     3.636000000000000e+03     3.788000000000000e+03     3.796000000000000e+03     3.616000000000000e+03     3.520000000000000e+03     3.718000000000000e+03     3.614000000000000e+03     3.446000000000000e+03     3.548000000000000e+03     3.726000000000000e+03     3.716000000000000e+03     3.810000000000000e+03     3.738000000000000e+03     3.838000000000000e+03     3.642000000000000e+03     3.704000000000000e+03     3.748000000000000e+03     3.652000000000000e+03     3.830000000000000e+03     3.746000000000000e+03     3.720000000000000e+03     3.630000000000000e+03     3.682000000000000e+03     3.874000000000000e+03     3.650000000000000e+03     3.932000000000000e+03     3.668000000000000e+03     3.680000000000000e+03     3.650000000000000e+03     3.962000000000000e+03     3.816000000000000e+03     3.750000000000000e+03     3.702000000000000e+03     3.670000000000000e+03     3.482000000000000e+03     3.718000000000000e+03     3.702000000000000e+03     3.584000000000000e+03     3.650000000000000e+03     3.672000000000000e+03     3.712000000000000e+03     3.682000000000000e+03     3.782000000000000e+03     3.804000000000000e+03     3.658000000000000e+03     3.690000000000000e+03     3.670000000000000e+03     3.664000000000000e+03     3.728000000000000e+03     3.654000000000000e+03     3.586000000000000e+03     3.476000000000000e+03     3.706000000000000e+03     3.728000000000000e+03     3.622000000000000e+03     3.734000000000000e+03     3.612000000000000e+03     3.552000000000000e+03     3.702000000000000e+03     3.638000000000000e+03     3.718000000000000e+03     3.466000000000000e+03     3.792000000000000e+03     3.566000000000000e+03     3.606000000000000e+03     3.878000000000000e+03     3.690000000000000e+03     3.852000000000000e+03     3.678000000000000e+03     3.650000000000000e+03     3.732000000000000e+03     3.774000000000000e+03     3.606000000000000e+03     3.686000000000000e+03     3.888000000000000e+03     3.590000000000000e+03     3.748000000000000e+03     3.770000000000000e+03     3.680000000000000e+03     3.784000000000000e+03     3.590000000000000e+03     3.628000000000000e+03     3.608000000000000e+03     3.758000000000000e+03     3.584000000000000e+03     3.688000000000000e+03     3.650000000000000e+03     3.594000000000000e+03     3.578000000000000e+03     3.710000000000000e+03     3.452000000000000e+03     3.544000000000000e+03     3.578000000000000e+03     3.540000000000000e+03     3.682000000000000e+03     3.668000000000000e+03     3.540000000000000e+03
    4.124000000000000e+03     4.246000000000000e+03     4.148000000000000e+03     4.090000000000000e+03     4.156000000000000e+03     4.006000000000000e+03     4.120000000000000e+03     4.044000000000000e+03     4.210000000000000e+03     4.132000000000000e+03     4.118000000000000e+03     4.112000000000000e+03     4.034000000000000e+03     4.080000000000000e+03     4.122000000000000e+03     4.224000000000000e+03     4.238000000000000e+03     4.232000000000000e+03     4.044000000000000e+03     4.246000000000000e+03     4.200000000000000e+03     4.142000000000000e+03     4.150000000000000e+03     4.186000000000000e+03     4.094000000000000e+03     4.128000000000000e+03     4.136000000000000e+03     4.172000000000000e+03     4.136000000000000e+03     4.148000000000000e+03     3.956000000000000e+03     4.150000000000000e+03     4.084000000000000e+03     4.160000000000000e+03     4.138000000000000e+03     4.084000000000000e+03     4.328000000000000e+03     4.356000000000000e+03     4.122000000000000e+03     4.028000000000000e+03     4.252000000000000e+03     3.892000000000000e+03     4.042000000000000e+03     3.934000000000000e+03     3.982000000000000e+03     3.972000000000000e+03     4.104000000000000e+03     4.070000000000000e+03     3.904000000000000e+03     4.118000000000000e+03     4.036000000000000e+03     4.020000000000000e+03     3.930000000000000e+03     3.980000000000000e+03     4.072000000000000e+03     4.176000000000000e+03     4.066000000000000e+03     4.172000000000000e+03     4.002000000000000e+03     4.222000000000000e+03     3.998000000000000e+03     3.802000000000000e+03     4.086000000000000e+03     3.872000000000000e+03     4.012000000000000e+03     3.794000000000000e+03     3.952000000000000e+03     4.114000000000000e+03     3.968000000000000e+03     4.014000000000000e+03     4.024000000000000e+03     4.246000000000000e+03     4.142000000000000e+03     4.122000000000000e+03     4.052000000000000e+03     4.126000000000000e+03     4.086000000000000e+03     4.064000000000000e+03     4.090000000000000e+03     3.950000000000000e+03     4.106000000000000e+03     4.082000000000000e+03     3.974000000000000e+03     3.968000000000000e+03     3.980000000000000e+03     4.116000000000000e+03     4.136000000000000e+03     4.050000000000000e+03     4.040000000000000e+03     4.112000000000000e+03     4.104000000000000e+03     4.160000000000000e+03     4.140000000000000e+03     3.986000000000000e+03     4.018000000000000e+03     4.040000000000000e+03     4.278000000000000e+03     4.154000000000000e+03     4.114000000000000e+03     4.232000000000000e+03
    4.656000000000000e+03     4.602000000000000e+03     4.394000000000000e+03     4.580000000000000e+03     4.620000000000000e+03     4.580000000000000e+03     4.464000000000000e+03     4.392000000000000e+03     4.530000000000000e+03     4.466000000000000e+03     4.532000000000000e+03     4.628000000000000e+03     4.620000000000000e+03     4.444000000000000e+03     4.498000000000000e+03     4.510000000000000e+03     4.530000000000000e+03     4.488000000000000e+03     4.392000000000000e+03     4.634000000000000e+03     4.472000000000000e+03     4.516000000000000e+03     4.466000000000000e+03     4.536000000000000e+03     4.372000000000000e+03     4.620000000000000e+03     4.372000000000000e+03     4.430000000000000e+03     4.286000000000000e+03     4.544000000000000e+03     4.622000000000000e+03     4.344000000000000e+03     4.484000000000000e+03     4.472000000000000e+03     4.520000000000000e+03     4.666000000000000e+03     4.716000000000000e+03     4.698000000000000e+03     4.654000000000000e+03     4.702000000000000e+03     4.502000000000000e+03     4.668000000000000e+03     4.608000000000000e+03     4.626000000000000e+03     4.362000000000000e+03     4.468000000000000e+03     4.438000000000000e+03     4.672000000000000e+03     4.526000000000000e+03     4.514000000000000e+03     4.504000000000000e+03     4.542000000000000e+03     4.476000000000000e+03     4.630000000000000e+03     4.422000000000000e+03     4.318000000000000e+03     4.658000000000000e+03     4.400000000000000e+03     4.400000000000000e+03     4.544000000000000e+03     4.656000000000000e+03     4.410000000000000e+03     4.424000000000000e+03     4.336000000000000e+03     4.662000000000000e+03     4.514000000000000e+03     4.532000000000000e+03     4.416000000000000e+03     4.394000000000000e+03     4.558000000000000e+03     4.466000000000000e+03     4.496000000000000e+03     4.460000000000000e+03     4.596000000000000e+03     4.650000000000000e+03     4.500000000000000e+03     4.330000000000000e+03     4.634000000000000e+03     4.634000000000000e+03     4.464000000000000e+03     4.488000000000000e+03     4.376000000000000e+03     4.326000000000000e+03     4.358000000000000e+03     4.574000000000000e+03     4.442000000000000e+03     4.490000000000000e+03     4.544000000000000e+03     4.570000000000000e+03     4.388000000000000e+03     4.390000000000000e+03     4.558000000000000e+03     4.542000000000000e+03     4.594000000000000e+03     4.460000000000000e+03     4.624000000000000e+03     4.840000000000000e+03     4.478000000000000e+03     4.468000000000000e+03     4.554000000000000e+03
    4.846000000000000e+03     4.904000000000000e+03     5.050000000000000e+03     4.936000000000000e+03     4.802000000000000e+03     4.988000000000000e+03     5.016000000000000e+03     4.944000000000000e+03     5.010000000000000e+03     4.972000000000000e+03     4.916000000000000e+03     4.942000000000000e+03     5.000000000000000e+03     4.940000000000000e+03     4.954000000000000e+03     4.916000000000000e+03     5.006000000000000e+03     4.880000000000000e+03     4.876000000000000e+03     4.962000000000000e+03     5.014000000000000e+03     4.744000000000000e+03     4.906000000000000e+03     5.026000000000000e+03     4.946000000000000e+03     5.012000000000000e+03     4.930000000000000e+03     5.184000000000000e+03     5.072000000000000e+03     4.840000000000000e+03     5.150000000000000e+03     4.784000000000000e+03     4.866000000000000e+03     5.050000000000000e+03     4.996000000000000e+03     5.004000000000000e+03     5.148000000000000e+03     5.150000000000000e+03     4.914000000000000e+03     4.930000000000000e+03     4.890000000000000e+03     4.958000000000000e+03     4.796000000000000e+03     4.946000000000000e+03     4.850000000000000e+03     5.002000000000000e+03     5.008000000000000e+03     4.894000000000000e+03     4.944000000000000e+03     5.096000000000000e+03     4.936000000000000e+03     4.918000000000000e+03     4.874000000000000e+03     4.724000000000000e+03     4.830000000000000e+03     4.714000000000000e+03     4.940000000000000e+03     4.832000000000000e+03     4.774000000000000e+03     4.966000000000000e+03     4.984000000000000e+03     5.138000000000000e+03     4.866000000000000e+03     5.028000000000000e+03     5.028000000000000e+03     4.736000000000000e+03     4.812000000000000e+03     4.770000000000000e+03     4.992000000000000e+03     4.854000000000000e+03     5.010000000000000e+03     4.766000000000000e+03     4.888000000000000e+03     5.196000000000000e+03     4.880000000000000e+03     5.160000000000000e+03     4.862000000000000e+03     4.940000000000000e+03     4.736000000000000e+03     5.014000000000000e+03     4.862000000000000e+03     4.956000000000000e+03     5.018000000000000e+03     4.956000000000000e+03     4.838000000000000e+03     5.036000000000000e+03     5.138000000000000e+03     5.014000000000000e+03     5.066000000000000e+03     5.040000000000000e+03     4.952000000000000e+03     4.852000000000000e+03     4.832000000000000e+03     4.790000000000000e+03     4.788000000000000e+03     4.958000000000000e+03     4.908000000000000e+03     5.134000000000000e+03     5.118000000000000e+03     4.944000000000000e+03
    5.216000000000000e+03     5.382000000000000e+03     5.478000000000000e+03     5.266000000000000e+03     5.416000000000000e+03     5.370000000000000e+03     5.534000000000000e+03     5.582000000000000e+03     5.394000000000000e+03     5.600000000000000e+03     5.396000000000000e+03     5.488000000000000e+03     5.508000000000000e+03     5.446000000000000e+03     5.298000000000000e+03     5.572000000000000e+03     5.230000000000000e+03     5.412000000000000e+03     5.476000000000000e+03     5.330000000000000e+03     5.280000000000000e+03     5.424000000000000e+03     5.296000000000000e+03     5.300000000000000e+03     5.240000000000000e+03     5.442000000000000e+03     5.442000000000000e+03     5.398000000000000e+03     5.404000000000000e+03     5.536000000000000e+03     5.436000000000000e+03     5.224000000000000e+03     5.542000000000000e+03     5.436000000000000e+03     5.468000000000000e+03     5.482000000000000e+03     5.408000000000000e+03     5.546000000000000e+03     5.594000000000000e+03     5.436000000000000e+03     5.512000000000000e+03     5.554000000000000e+03     5.338000000000000e+03     5.488000000000000e+03     5.504000000000000e+03     5.276000000000000e+03     5.582000000000000e+03     5.458000000000000e+03     5.346000000000000e+03     5.696000000000000e+03     5.266000000000000e+03     5.276000000000000e+03     5.326000000000000e+03     5.478000000000000e+03     5.228000000000000e+03     5.244000000000000e+03     5.220000000000000e+03     5.644000000000000e+03     5.516000000000000e+03     5.440000000000000e+03     5.234000000000000e+03     5.088000000000000e+03     5.310000000000000e+03     5.442000000000000e+03     5.396000000000000e+03     5.332000000000000e+03     5.366000000000000e+03     5.314000000000000e+03     5.358000000000000e+03     5.230000000000000e+03     5.428000000000000e+03     5.394000000000000e+03     5.448000000000000e+03     5.222000000000000e+03     5.194000000000000e+03     5.396000000000000e+03     5.310000000000000e+03     5.292000000000000e+03     5.256000000000000e+03     5.502000000000000e+03     5.462000000000000e+03     5.892000000000000e+03     5.314000000000000e+03     5.370000000000000e+03     5.644000000000000e+03     5.508000000000000e+03     5.438000000000000e+03     5.476000000000000e+03     5.550000000000000e+03     5.394000000000000e+03     5.316000000000000e+03     5.380000000000000e+03     5.212000000000000e+03     5.264000000000000e+03     5.374000000000000e+03     5.372000000000000e+03     5.360000000000000e+03     5.322000000000000e+03     5.406000000000000e+03     5.594000000000000e+03
    5.874000000000000e+03     5.908000000000000e+03     5.796000000000000e+03     5.988000000000000e+03     5.664000000000000e+03     5.806000000000000e+03     5.866000000000000e+03     5.956000000000000e+03     5.902000000000000e+03     5.898000000000000e+03     5.958000000000000e+03     5.846000000000000e+03     5.864000000000000e+03     5.698000000000000e+03     5.938000000000000e+03     5.844000000000000e+03     5.978000000000000e+03     5.824000000000000e+03     5.946000000000000e+03     5.722000000000000e+03     5.996000000000000e+03     5.950000000000000e+03     5.730000000000000e+03     5.696000000000000e+03     5.828000000000000e+03     5.880000000000000e+03     5.700000000000000e+03     5.776000000000000e+03     5.794000000000000e+03     5.708000000000000e+03     5.604000000000000e+03     5.734000000000000e+03     5.906000000000000e+03     5.952000000000000e+03     5.906000000000000e+03     5.772000000000000e+03     5.942000000000000e+03     5.894000000000000e+03     5.752000000000000e+03     5.942000000000000e+03     5.946000000000000e+03     6.048000000000000e+03     5.884000000000000e+03     6.150000000000000e+03     6.106000000000000e+03     5.706000000000000e+03     5.934000000000000e+03     5.648000000000000e+03     6.048000000000000e+03     6.010000000000000e+03     5.932000000000000e+03     5.878000000000000e+03     5.988000000000000e+03     5.872000000000000e+03     5.968000000000000e+03     5.884000000000000e+03     5.798000000000000e+03     6.034000000000000e+03     5.806000000000000e+03     5.960000000000000e+03     6.288000000000000e+03     5.900000000000000e+03     5.750000000000000e+03     5.930000000000000e+03     5.880000000000000e+03     5.536000000000000e+03     5.778000000000000e+03     5.660000000000000e+03     5.678000000000000e+03     5.998000000000000e+03     5.706000000000000e+03     5.804000000000000e+03     5.996000000000000e+03     5.836000000000000e+03     5.680000000000000e+03     5.836000000000000e+03     5.820000000000000e+03     5.724000000000000e+03     5.914000000000000e+03     5.802000000000000e+03     5.854000000000000e+03     5.958000000000000e+03     5.824000000000000e+03     5.876000000000000e+03     5.820000000000000e+03     5.960000000000000e+03     6.040000000000000e+03     5.866000000000000e+03     5.894000000000000e+03     6.104000000000000e+03     6.000000000000000e+03     5.936000000000000e+03     6.112000000000000e+03     5.966000000000000e+03     5.660000000000000e+03     5.822000000000000e+03     5.726000000000000e+03     5.984000000000000e+03     6.136000000000000e+03     5.858000000000000e+03
    6.328000000000000e+03     6.244000000000000e+03     6.230000000000000e+03     6.270000000000000e+03     6.350000000000000e+03     6.576000000000000e+03     6.526000000000000e+03     6.380000000000000e+03     6.570000000000000e+03     6.294000000000000e+03     6.532000000000000e+03     6.340000000000000e+03     6.090000000000000e+03     6.516000000000000e+03     6.384000000000000e+03     6.610000000000000e+03     6.176000000000000e+03     6.270000000000000e+03     6.206000000000000e+03     6.346000000000000e+03     6.102000000000000e+03     6.582000000000000e+03     6.402000000000000e+03     6.230000000000000e+03     6.424000000000000e+03     6.328000000000000e+03     6.328000000000000e+03     6.234000000000000e+03     6.164000000000000e+03     6.178000000000000e+03     6.172000000000000e+03     6.240000000000000e+03     6.432000000000000e+03     6.410000000000000e+03     6.372000000000000e+03     6.444000000000000e+03     6.332000000000000e+03     6.484000000000000e+03     6.660000000000000e+03     6.302000000000000e+03     6.244000000000000e+03     6.398000000000000e+03     6.170000000000000e+03     6.352000000000000e+03     6.490000000000000e+03     6.356000000000000e+03     6.236000000000000e+03     6.454000000000000e+03     6.406000000000000e+03     6.526000000000000e+03     6.586000000000000e+03     6.534000000000000e+03     6.374000000000000e+03     6.296000000000000e+03     6.414000000000000e+03     6.236000000000000e+03     6.164000000000000e+03     6.314000000000000e+03     6.232000000000000e+03     6.440000000000000e+03     6.472000000000000e+03     6.244000000000000e+03     6.290000000000000e+03     6.376000000000000e+03     6.230000000000000e+03     6.356000000000000e+03     6.218000000000000e+03     6.448000000000000e+03     6.322000000000000e+03     6.332000000000000e+03     6.484000000000000e+03     6.620000000000000e+03     6.412000000000000e+03     6.428000000000000e+03     6.466000000000000e+03     6.452000000000000e+03     6.318000000000000e+03     6.562000000000000e+03     6.404000000000000e+03     6.416000000000000e+03     6.440000000000000e+03     6.336000000000000e+03     6.320000000000000e+03     6.348000000000000e+03     6.444000000000000e+03     6.624000000000000e+03     6.098000000000000e+03     6.408000000000000e+03     6.430000000000000e+03     6.518000000000000e+03     6.476000000000000e+03     6.550000000000000e+03     6.538000000000000e+03     6.564000000000000e+03     6.336000000000000e+03     6.430000000000000e+03     6.654000000000000e+03     6.456000000000000e+03     6.486000000000000e+03     6.596000000000000e+03
    6.930000000000000e+03     7.102000000000000e+03     7.166000000000000e+03     6.796000000000000e+03     7.160000000000000e+03     7.176000000000000e+03     7.118000000000000e+03     6.912000000000000e+03     7.152000000000000e+03     7.092000000000000e+03     7.060000000000000e+03     6.856000000000000e+03     7.056000000000000e+03     6.804000000000000e+03     6.848000000000000e+03     6.788000000000000e+03     7.032000000000000e+03     6.904000000000000e+03     6.948000000000000e+03     6.710000000000000e+03     6.700000000000000e+03     6.848000000000000e+03     6.828000000000000e+03     6.774000000000000e+03     6.810000000000000e+03     6.632000000000000e+03     6.586000000000000e+03     6.650000000000000e+03     6.806000000000000e+03     6.830000000000000e+03     6.786000000000000e+03     6.784000000000000e+03     6.724000000000000e+03     6.710000000000000e+03     6.916000000000000e+03     6.796000000000000e+03     6.748000000000000e+03     7.018000000000000e+03     7.040000000000000e+03     6.906000000000000e+03     7.014000000000000e+03     7.010000000000000e+03     6.928000000000000e+03     7.066000000000000e+03     6.722000000000000e+03     7.026000000000000e+03     6.952000000000000e+03     6.796000000000000e+03     7.226000000000000e+03     6.968000000000000e+03     6.872000000000000e+03     6.786000000000000e+03     6.920000000000000e+03     6.804000000000000e+03     6.900000000000000e+03     6.654000000000000e+03     6.776000000000000e+03     6.920000000000000e+03     6.738000000000000e+03     6.768000000000000e+03     6.942000000000000e+03     7.016000000000000e+03     6.840000000000000e+03     6.908000000000000e+03     6.766000000000000e+03     6.902000000000000e+03     6.800000000000000e+03     7.074000000000000e+03     6.850000000000000e+03     6.592000000000000e+03     6.896000000000000e+03     6.870000000000000e+03     7.176000000000000e+03     6.742000000000000e+03     6.806000000000000e+03     6.674000000000000e+03     7.134000000000000e+03     6.920000000000000e+03     6.954000000000000e+03     6.908000000000000e+03     6.670000000000000e+03     6.834000000000000e+03     6.608000000000000e+03     6.910000000000000e+03     6.906000000000000e+03     6.988000000000000e+03     6.898000000000000e+03     6.822000000000000e+03     6.830000000000000e+03     7.180000000000000e+03     7.380000000000000e+03     7.082000000000000e+03     7.322000000000000e+03     7.076000000000000e+03     6.996000000000000e+03     6.954000000000000e+03     7.060000000000000e+03     7.246000000000000e+03     7.322000000000000e+03     7.278000000000000e+03
    7.436000000000000e+03     7.520000000000000e+03     7.664000000000000e+03     7.208000000000000e+03     7.254000000000000e+03     7.448000000000000e+03     7.422000000000000e+03     7.388000000000000e+03     7.176000000000000e+03     7.368000000000000e+03     7.274000000000000e+03     7.364000000000000e+03     7.146000000000000e+03     7.356000000000000e+03     7.252000000000000e+03     7.104000000000000e+03     7.160000000000000e+03     7.280000000000000e+03     7.216000000000000e+03     7.346000000000000e+03     7.284000000000000e+03     7.434000000000000e+03     7.340000000000000e+03     7.464000000000000e+03     7.236000000000000e+03     7.328000000000000e+03     7.170000000000000e+03     7.290000000000000e+03     7.422000000000000e+03     7.308000000000000e+03     7.324000000000000e+03     7.300000000000000e+03     7.392000000000000e+03     7.518000000000000e+03     7.604000000000000e+03     7.482000000000000e+03     7.476000000000000e+03     7.312000000000000e+03     7.596000000000000e+03     7.516000000000000e+03     7.694000000000000e+03     7.408000000000000e+03     7.410000000000000e+03     7.526000000000000e+03     7.352000000000000e+03     7.232000000000000e+03     7.426000000000000e+03     7.470000000000000e+03     7.762000000000000e+03     7.400000000000000e+03     7.474000000000000e+03     7.896000000000000e+03     7.512000000000000e+03     7.496000000000000e+03     7.398000000000000e+03     7.586000000000000e+03     7.728000000000000e+03     7.668000000000000e+03     7.222000000000000e+03     7.400000000000000e+03     7.590000000000000e+03     7.288000000000000e+03     7.138000000000000e+03     7.622000000000000e+03     7.458000000000000e+03     7.524000000000000e+03     7.308000000000000e+03     7.436000000000000e+03     7.366000000000000e+03     7.262000000000000e+03     7.426000000000000e+03     7.894000000000000e+03     7.378000000000000e+03     7.484000000000000e+03     7.280000000000000e+03     7.234000000000000e+03     7.264000000000000e+03     7.378000000000000e+03     7.358000000000000e+03     7.426000000000000e+03     7.590000000000000e+03     7.414000000000000e+03     7.420000000000000e+03     7.462000000000000e+03     7.544000000000000e+03     7.580000000000000e+03     7.600000000000000e+03     7.856000000000000e+03     7.522000000000000e+03     7.454000000000000e+03     7.756000000000000e+03     7.846000000000000e+03     7.654000000000000e+03     8.032000000000000e+03     7.450000000000000e+03     7.426000000000000e+03     7.568000000000000e+03     7.426000000000000e+03     7.864000000000000e+03     7.988000000000000e+03
    8.150000000000000e+03     8.110000000000000e+03     7.842000000000000e+03     8.186000000000000e+03     8.076000000000000e+03     8.086000000000000e+03     8.324000000000000e+03     7.924000000000000e+03     7.918000000000000e+03     8.002000000000000e+03     8.064000000000000e+03     7.872000000000000e+03     7.900000000000000e+03     7.988000000000000e+03     7.888000000000000e+03     7.900000000000000e+03     8.124000000000000e+03     7.916000000000000e+03     8.132000000000000e+03     7.954000000000000e+03     7.922000000000000e+03     8.224000000000000e+03     7.952000000000000e+03     7.702000000000000e+03     8.122000000000000e+03     8.032000000000000e+03     7.892000000000000e+03     8.176000000000000e+03     8.206000000000000e+03     7.936000000000000e+03     7.992000000000000e+03     8.000000000000000e+03     8.020000000000000e+03     7.810000000000000e+03     7.866000000000000e+03     7.870000000000000e+03     7.962000000000000e+03     8.026000000000000e+03     7.898000000000000e+03     7.822000000000000e+03     8.090000000000000e+03     7.946000000000000e+03     7.908000000000000e+03     7.954000000000000e+03     7.998000000000000e+03     8.072000000000000e+03     8.268000000000000e+03     7.930000000000000e+03     8.166000000000000e+03     8.122000000000000e+03     7.738000000000000e+03     8.066000000000000e+03     7.930000000000000e+03     8.156000000000000e+03     7.790000000000000e+03     8.008000000000000e+03     8.164000000000000e+03     8.212000000000000e+03     8.018000000000000e+03     8.080000000000000e+03     8.158000000000000e+03     8.282000000000000e+03     7.952000000000000e+03     8.052000000000000e+03     8.034000000000000e+03     8.064000000000000e+03     8.180000000000000e+03     7.776000000000000e+03     8.070000000000000e+03     8.146000000000000e+03     7.662000000000000e+03     7.788000000000000e+03     7.732000000000000e+03     8.088000000000000e+03     8.032000000000000e+03     7.998000000000000e+03     8.030000000000000e+03     7.992000000000000e+03     8.050000000000000e+03     8.134000000000000e+03     8.006000000000000e+03     8.000000000000000e+03     8.064000000000000e+03     8.108000000000000e+03     8.200000000000000e+03     8.308000000000000e+03     8.214000000000000e+03     7.934000000000000e+03     8.230000000000000e+03     8.288000000000000e+03     8.354000000000000e+03     8.078000000000000e+03     8.016000000000000e+03     8.290000000000000e+03     8.046000000000000e+03     8.040000000000000e+03     8.204000000000000e+03     8.192000000000000e+03     8.514000000000000e+03     8.386000000000000e+03
    8.622000000000000e+03     8.668000000000000e+03     8.562000000000000e+03     8.550000000000000e+03     8.414000000000000e+03     8.552000000000000e+03     8.474000000000000e+03     8.966000000000000e+03     8.650000000000000e+03     8.506000000000000e+03     8.386000000000000e+03     8.522000000000000e+03     8.462000000000000e+03     8.598000000000000e+03     8.444000000000000e+03     8.484000000000000e+03     8.280000000000000e+03     8.418000000000000e+03     8.234000000000000e+03     8.576000000000000e+03     8.592000000000000e+03     8.470000000000000e+03     8.520000000000000e+03     8.716000000000000e+03     8.518000000000000e+03     8.652000000000000e+03     8.680000000000000e+03     8.470000000000000e+03     8.540000000000000e+03     8.504000000000000e+03     8.588000000000000e+03     8.426000000000000e+03     8.464000000000000e+03     8.482000000000000e+03     8.598000000000000e+03     8.758000000000000e+03     8.504000000000000e+03     8.288000000000000e+03     8.384000000000000e+03     8.478000000000000e+03     8.562000000000000e+03     8.402000000000000e+03     8.792000000000000e+03     8.562000000000000e+03     8.552000000000000e+03     8.486000000000000e+03     8.754000000000000e+03     8.396000000000000e+03     8.582000000000000e+03     8.708000000000000e+03     8.546000000000000e+03     8.534000000000000e+03     8.726000000000000e+03     8.506000000000000e+03     8.754000000000000e+03     8.668000000000000e+03     8.538000000000000e+03     8.658000000000000e+03     8.948000000000000e+03     8.782000000000000e+03     8.540000000000000e+03     8.314000000000000e+03     8.280000000000000e+03     8.616000000000000e+03     8.378000000000000e+03     8.560000000000000e+03     8.738000000000000e+03     8.780000000000000e+03     8.474000000000000e+03     8.564000000000000e+03     8.312000000000000e+03     8.368000000000000e+03     8.674000000000000e+03     8.204000000000000e+03     8.120000000000000e+03     8.526000000000000e+03     8.612000000000000e+03     8.346000000000000e+03     8.498000000000000e+03     8.916000000000000e+03     8.808000000000000e+03     8.580000000000000e+03     8.948000000000000e+03     8.690000000000000e+03     8.806000000000000e+03     8.650000000000000e+03     9.064000000000000e+03     9.068000000000000e+03     8.880000000000000e+03     8.794000000000000e+03     8.982000000000000e+03     9.174000000000000e+03     8.770000000000000e+03     8.720000000000000e+03     8.900000000000000e+03     8.792000000000000e+03     8.536000000000000e+03     8.736000000000000e+03     9.408000000000000e+03     9.392000000000000e+03
    9.188000000000000e+03     8.868000000000000e+03     9.370000000000000e+03     9.270000000000000e+03     9.234000000000000e+03     9.032000000000000e+03     9.362000000000000e+03     9.136000000000000e+03     9.348000000000000e+03     9.290000000000000e+03     9.154000000000000e+03     8.956000000000000e+03     9.420000000000000e+03     9.146000000000000e+03     9.254000000000000e+03     9.060000000000000e+03     8.888000000000000e+03     8.878000000000000e+03     9.114000000000000e+03     9.056000000000000e+03     9.232000000000000e+03     9.054000000000000e+03     9.282000000000000e+03     9.326000000000000e+03     9.210000000000000e+03     8.976000000000000e+03     9.174000000000000e+03     9.110000000000000e+03     9.044000000000000e+03     9.296000000000000e+03     9.146000000000000e+03     9.250000000000000e+03     9.088000000000000e+03     8.972000000000000e+03     8.980000000000000e+03     9.120000000000000e+03     9.110000000000000e+03     9.182000000000000e+03     8.988000000000000e+03     8.918000000000000e+03     9.432000000000000e+03     9.026000000000000e+03     9.164000000000000e+03     9.128000000000000e+03     9.122000000000000e+03     9.170000000000000e+03     9.084000000000000e+03     9.196000000000000e+03     9.410000000000000e+03     9.008000000000000e+03     9.370000000000000e+03     9.126000000000000e+03     9.316000000000000e+03     9.410000000000000e+03     8.630000000000000e+03     9.322000000000000e+03     9.206000000000000e+03     9.454000000000000e+03     9.440000000000000e+03     9.274000000000000e+03     9.316000000000000e+03     9.420000000000000e+03     9.418000000000000e+03     9.216000000000000e+03     9.450000000000000e+03     9.320000000000000e+03     9.344000000000000e+03     9.250000000000000e+03     9.120000000000000e+03     9.204000000000000e+03     9.180000000000000e+03     8.962000000000000e+03     9.020000000000000e+03     9.246000000000000e+03     8.900000000000000e+03     9.114000000000000e+03     8.606000000000000e+03     8.900000000000000e+03     9.168000000000000e+03     9.304000000000000e+03     9.030000000000000e+03     9.468000000000000e+03     9.290000000000000e+03     9.596000000000000e+03     9.436000000000000e+03     9.434000000000000e+03     9.218000000000000e+03     9.620000000000000e+03     9.356000000000000e+03     9.254000000000000e+03     1.004600000000000e+04     9.268000000000000e+03     9.722000000000000e+03     9.194000000000000e+03     9.702000000000000e+03     9.378000000000000e+03     9.120000000000000e+03     9.720000000000000e+03     9.628000000000000e+03     9.822000000000000e+03
    9.632000000000000e+03     9.600000000000000e+03     9.664000000000000e+03     9.684000000000000e+03     1.009000000000000e+04     9.860000000000000e+03     9.700000000000000e+03     9.802000000000000e+03     9.942000000000000e+03     9.926000000000000e+03     9.696000000000000e+03     9.624000000000000e+03     9.574000000000000e+03     9.688000000000000e+03     9.662000000000000e+03     9.612000000000000e+03     9.606000000000000e+03     1.006000000000000e+04     9.608000000000000e+03     1.002600000000000e+04     9.626000000000000e+03     9.928000000000000e+03     9.730000000000000e+03     9.832000000000000e+03     9.704000000000000e+03     9.858000000000000e+03     9.696000000000000e+03     9.588000000000000e+03     9.880000000000000e+03     9.802000000000000e+03     9.798000000000000e+03     9.760000000000000e+03     9.816000000000000e+03     9.796000000000000e+03     1.022000000000000e+04     1.010200000000000e+04     9.722000000000000e+03     9.650000000000000e+03     9.640000000000000e+03     9.728000000000000e+03     9.602000000000000e+03     9.884000000000000e+03     9.494000000000000e+03     1.018800000000000e+04     9.876000000000000e+03     9.470000000000000e+03     9.808000000000000e+03     9.550000000000000e+03     1.002400000000000e+04     9.758000000000000e+03     9.818000000000000e+03     9.774000000000000e+03     9.930000000000000e+03     9.872000000000000e+03     9.926000000000000e+03     9.994000000000000e+03     9.982000000000000e+03     9.802000000000000e+03     9.956000000000000e+03     9.744000000000000e+03     1.020400000000000e+04     9.988000000000000e+03     9.902000000000000e+03     9.860000000000000e+03     1.004400000000000e+04     9.716000000000000e+03     9.542000000000000e+03     9.582000000000000e+03     9.756000000000000e+03     9.558000000000000e+03     9.946000000000000e+03     9.714000000000000e+03     9.738000000000000e+03     9.760000000000000e+03     9.794000000000000e+03     9.926000000000000e+03     9.766000000000000e+03     9.582000000000000e+03     9.768000000000000e+03     9.960000000000000e+03     9.852000000000000e+03     1.011200000000000e+04     1.038000000000000e+04     1.005600000000000e+04     9.852000000000000e+03     9.936000000000000e+03     1.014800000000000e+04     1.008200000000000e+04     1.005600000000000e+04     1.003600000000000e+04     1.018400000000000e+04     1.011600000000000e+04     1.012200000000000e+04     1.014000000000000e+04     9.968000000000000e+03     1.026400000000000e+04     1.015800000000000e+04     1.029200000000000e+04     1.018000000000000e+04     1.032800000000000e+04
    1.028800000000000e+04     1.044400000000000e+04     1.050400000000000e+04     1.052000000000000e+04     1.038200000000000e+04     1.031400000000000e+04     1.038400000000000e+04     1.044200000000000e+04     1.034000000000000e+04     1.025800000000000e+04     1.024800000000000e+04     1.033200000000000e+04     1.043400000000000e+04     1.034800000000000e+04     9.974000000000000e+03     1.006800000000000e+04     1.032400000000000e+04     1.021000000000000e+04     1.032400000000000e+04     1.037400000000000e+04     1.031800000000000e+04     1.025200000000000e+04     1.026000000000000e+04     1.029200000000000e+04     1.082800000000000e+04     1.049000000000000e+04     1.050400000000000e+04     1.032600000000000e+04     1.032400000000000e+04     1.042800000000000e+04     1.048800000000000e+04     1.044400000000000e+04     1.031000000000000e+04     1.044200000000000e+04     1.037400000000000e+04     1.031200000000000e+04     1.016800000000000e+04     1.021200000000000e+04     1.021800000000000e+04     1.044400000000000e+04     1.046200000000000e+04     1.032400000000000e+04     1.034600000000000e+04     1.063200000000000e+04     1.036800000000000e+04     1.029000000000000e+04     1.034000000000000e+04     1.030800000000000e+04     1.059000000000000e+04     1.041600000000000e+04     9.852000000000000e+03     1.062200000000000e+04     1.064000000000000e+04     1.052000000000000e+04     1.055200000000000e+04     1.093200000000000e+04     1.048400000000000e+04     1.063600000000000e+04     1.039000000000000e+04     1.056400000000000e+04     1.047400000000000e+04     1.062200000000000e+04     1.021600000000000e+04     1.054000000000000e+04     1.041000000000000e+04     1.054800000000000e+04     1.041400000000000e+04     1.055200000000000e+04     1.030800000000000e+04     1.025400000000000e+04     1.040600000000000e+04     1.036200000000000e+04     1.026800000000000e+04     1.044000000000000e+04     1.065200000000000e+04     1.022800000000000e+04     1.018400000000000e+04     1.065200000000000e+04     1.054200000000000e+04     1.047400000000000e+04     1.103400000000000e+04     1.059400000000000e+04     1.098200000000000e+04     1.067000000000000e+04     1.050000000000000e+04     1.045600000000000e+04     1.074200000000000e+04     1.089200000000000e+04     1.104600000000000e+04     1.077800000000000e+04     1.078200000000000e+04     1.084200000000000e+04     1.070000000000000e+04     1.075400000000000e+04     1.073600000000000e+04     1.104000000000000e+04     1.062000000000000e+04     1.099800000000000e+04     1.080000000000000e+04     1.092600000000000e+04
